# device: Logitech Unifying Device. Wireless PID:4027
# bit: 1F 00 00 00 00 00 00 00
# key: 00 00 00 00 00 00 00 00 00 00 00 00 00 00 00 00 00 00 00 00 00 00 00 00 00 00 00 00 00 00 00 00 00 00 FF FF 00 00 00 00 20 E5 00 00 00 00 00 00 00 00 00 00 00 00 00 00 00 00 00 00 00 00 00 00 00 00 00 00 00 00 00 00 00 00 00 00 00 00 00 00 00 00 00 00 00 00 00 00 00 00 00 00 00 00 00 00
# rel: 03 00 00 00 00 00 00 00
# abs: 03 00 00 00 00 80 60 06
# led: 00 00 00 00 00 00 00 00
# prp: 00 00 00 00 00 00 00 00
# absinfo: 0 0 1080 0 0 19
# absinfo: 1 0 1353 0 0 19
# absinfo: 47 0 15 0 0 0
# absinfo: 53 0 1080 0 0 19
# absinfo: 54 0 1353 0 0 19
# absinfo: 57 0 65535 0 0 0
# absinfo: 58 0 255 0 0 0
E: 447280.461259 0003 002f 0
E: 447280.461259 0003 0030 0
E: 447280.461259 0003 0031 0
E: 447280.461259 0003 0032 0
E: 447280.461259 0003 0033 0
E: 447280.461259 0003 0034 0
E: 447280.461259 0003 0035 482
E: 447280.461259 0003 0036 618
E: 447280.461259 0003 0037 0
E: 447280.461259 0003 0038 0
E: 447280.461259 0003 0039 222
E: 447280.461259 0003 003a 34
E: 447280.461259 0003 003b 0
E: 447280.461259 0003 002f 1
E: 447280.461259 0003 0039 -1
E: 447280.461259 0003 002f 2
E: 447280.461259 0003 0039 -1
E: 447280.461259 0003 002f 3
E: 447280.461259 0003 0039 -1
E: 447280.461259 0003 002f 4
E: 447280.461259 0003 0039 -1
E: 447280.461259 0003 002f 5
E: 447280.461259 0003 0039 -1
E: 447280.461259 0003 002f 6
E: 447280.461259 0003 0039 -1
E: 447280.461259 0003 002f 7
E: 447280.461259 0003 0039 -1
E: 447280.461259 0003 002f 8
E: 447280.461259 0003 0039 -1
E: 447280.461259 0003 002f 9
E: 447280.461259 0003 0039 -1
E: 447280.461259 0003 002f 10
E: 447280.461259 0003 0039 -1
E: 447280.461259 0003 002f 11
E: 447280.461259 0003 0039 -1
E: 447280.461259 0003 002f 12
E: 447280.461259 0003 0039 -1
E: 447280.461259 0003 002f 13
E: 447280.461259 0003 0039 -1
E: 447280.461259 0003 002f 14
E: 447280.461259 0003 0039 -1
E: 447280.461259 0003 002f 15
E: 447280.461259 0003 0039 -1
E: 447280.461259 0003 002f 0
E: 447280.461259 0001 0145 1
E: 447280.461259 0001 014a 1
E: 447280.461259 0000 0000 0
E: 447280.479254 0003 0035 480
E: 447280.479255 0003 0036 612
E: 447280.479257 0000 0000 0
E: 447280.491256 0003 0035 475
E: 447280.491257 0003 0036 609
E: 447280.491257 0003 003a 50
E: 447280.491259 0000 0000 0
E: 447280.509253 0003 0036 607
E: 447280.509256 0000 0000 0
E: 447280.523252 0003 0036 606
E: 447280.523255 0000 0000 0
E: 447280.541254 0003 0036 607
E: 447280.541255 0003 003a 51
E: 447280.541257 0000 0000 0
E: 447280.553254 0003 0036 605
E: 447280.553255 0003 003a 50
E: 447280.553257 0000 0000 0
E: 447280.571255 0003 0036 604
E: 447280.571256 0003 003a 67
E: 447280.571258 0000 0000 0
E: 447280.589256 0003 0036 600
E: 447280.589257 0003 003a 66
E: 447280.589259 0000 0000 0
E: 447280.601253 0003 0035 473
E: 447280.601254 0003 0036 586
E: 447280.601254 0003 003a 82
E: 447280.601256 0000 0000 0
E: 447280.619250 0003 0035 474
E: 447280.619250 0003 0036 570
E: 447280.619251 0003 003a 98
E: 447280.619253 0000 0000 0
E: 447280.631263 0003 0035 475
E: 447280.631265 0003 0036 549
E: 447280.631265 0003 003a 82
E: 447280.631267 0000 0000 0
E: 447280.649252 0003 0035 479
E: 447280.649253 0003 0036 532
E: 447280.649253 0003 003a 50
E: 447280.649255 0000 0000 0
E: 447280.667250 0003 0035 475
E: 447280.667251 0003 0036 498
E: 447280.667251 0003 003a 66
E: 447280.667253 0000 0000 0
E: 447280.679258 0003 0035 479
E: 447280.679259 0003 0036 466
E: 447280.679260 0003 003a 82
E: 447280.679262 0000 0000 0
E: 447280.699252 0003 0035 482
E: 447280.699253 0003 0036 434
E: 447280.699256 0000 0000 0
E: 447280.711267 0003 0035 485
E: 447280.711268 0003 0036 411
E: 447280.711268 0003 003a 66
E: 447280.711272 0000 0000 0
E: 447280.729251 0003 0035 488
E: 447280.729252 0003 0036 391
E: 447280.729254 0000 0000 0
E: 447280.741253 0003 0035 490
E: 447280.741254 0003 0036 381
E: 447280.741257 0000 0000 0
E: 447280.759254 0003 0035 491
E: 447280.759255 0003 0036 372
E: 447280.759255 0003 003a 82
E: 447280.759257 0000 0000 0
E: 447280.771251 0003 0035 493
E: 447280.771252 0003 0036 367
E: 447280.771253 0003 003a 66
E: 447280.771255 0000 0000 0
E: 447280.789258 0003 0036 365
E: 447280.789260 0003 003a 82
E: 447280.789262 0000 0000 0
E: 447280.801253 0003 0035 492
E: 447280.801254 0003 0036 366
E: 447280.801256 0000 0000 0
E: 447280.819247 0003 0035 493
E: 447280.819251 0000 0000 0
E: 447280.831253 0003 0036 367
E: 447280.831255 0000 0000 0
E: 447280.849252 0003 0035 494
E: 447280.849253 0003 0036 366
E: 447280.849255 0000 0000 0
E: 447280.861250 0003 0035 493
E: 447280.861251 0003 0036 365
E: 447280.861253 0000 0000 0
E: 447280.881250 0003 0036 366
E: 447280.881253 0000 0000 0
E: 447280.899247 0003 0035 492
E: 447280.899250 0000 0000 0
E: 447280.929273 0003 0035 491
E: 447280.929279 0000 0000 0
E: 447280.941272 0003 0036 367
E: 447280.941277 0000 0000 0
E: 447280.959286 0003 0035 492
E: 447280.959294 0000 0000 0
E: 447280.971285 0003 0035 491
E: 447280.971292 0000 0000 0
E: 447281.019247 0003 0035 490
E: 447281.019251 0000 0000 0
E: 447281.037303 0003 0035 488
E: 447281.037305 0003 0036 368
E: 447281.037311 0000 0000 0
E: 447281.051300 0003 0036 370
E: 447281.051302 0003 003a 66
E: 447281.051306 0000 0000 0
E: 447281.069297 0003 0035 486
E: 447281.069299 0003 0036 374
E: 447281.069305 0000 0000 0
E: 447281.081319 0003 0035 487
E: 447281.081322 0003 0036 382
E: 447281.081323 0003 003a 34
E: 447281.081328 0000 0000 0
E: 447281.099266 0003 0039 -1
E: 447281.099269 0001 014a 0
E: 447281.099269 0001 0145 0
E: 447281.099271 0000 0000 0
E: 447281.911311 0002 0000 1
E: 447281.911314 0000 0000 0
E: 447281.935306 0002 0000 1
E: 447281.935309 0000 0000 0
E: 447281.941297 0002 0001 1
E: 447281.941299 0000 0000 0
E: 447281.953261 0002 0000 1
E: 447281.953264 0000 0000 0
E: 447282.299254 0002 0000 -1
E: 447282.299255 0000 0000 0
E: 447282.299755 0003 002f 0
E: 447282.299755 0003 0039 -1
E: 447282.299755 0003 002f 1
E: 447282.299755 0003 0039 -1
E: 447282.299755 0003 002f 2
E: 447282.299755 0003 0039 -1
E: 447282.299755 0003 002f 3
E: 447282.299755 0003 0039 -1
E: 447282.299755 0003 002f 4
E: 447282.299755 0003 0039 -1
E: 447282.299755 0003 002f 5
E: 447282.299755 0003 0039 -1
E: 447282.299755 0003 002f 6
E: 447282.299755 0003 0039 -1
E: 447282.299755 0003 002f 7
E: 447282.299755 0003 0039 -1
E: 447282.299755 0003 002f 8
E: 447282.299755 0003 0039 -1
E: 447282.299755 0003 002f 9
E: 447282.299755 0003 0039 -1
E: 447282.299755 0003 002f 10
E: 447282.299755 0003 0039 -1
E: 447282.299755 0003 002f 11
E: 447282.299755 0003 0039 -1
E: 447282.299755 0003 002f 12
E: 447282.299755 0003 0039 -1
E: 447282.299755 0003 002f 13
E: 447282.299755 0003 0039 -1
E: 447282.299755 0003 002f 14
E: 447282.299755 0003 0039 -1
E: 447282.299755 0003 002f 15
E: 447282.299755 0003 0039 -1
