# device: Logitech Unifying Device. Wireless PID:4027
# bit: 1F 00 00 00 00 00 00 00
# key: 00 00 00 00 00 00 00 00 00 00 00 00 00 00 00 00 00 00 00 00 00 00 00 00 00 00 00 00 00 00 00 00 00 00 FF FF 00 00 00 00 20 E5 00 00 00 00 00 00 00 00 00 00 00 00 00 00 00 00 00 00 00 00 00 00 00 00 00 00 00 00 00 00 00 00 00 00 00 00 00 00 00 00 00 00 00 00 00 00 00 00 00 00 00 00 00 00
# rel: 03 00 00 00 00 00 00 00
# abs: 03 00 00 00 00 80 60 06
# led: 00 00 00 00 00 00 00 00
# prp: 00 00 00 00 00 00 00 00
# absinfo: 0 0 1080 0 0 19
# absinfo: 1 0 1353 0 0 19
# absinfo: 47 0 15 0 0 0
# absinfo: 53 0 1080 0 0 19
# absinfo: 54 0 1353 0 0 19
# absinfo: 57 0 65535 0 0 0
# absinfo: 58 0 255 0 0 0
E: 13335.732591 0003 002f 0
E: 13335.732591 0003 0039 -1
E: 13335.732591 0003 002f 1
E: 13335.732591 0003 0039 -1
E: 13335.732591 0003 002f 2
E: 13335.732591 0003 0039 -1
E: 13335.732591 0003 002f 3
E: 13335.732591 0003 0039 -1
E: 13335.732591 0003 002f 4
E: 13335.732591 0003 0039 -1
E: 13335.732591 0003 002f 5
E: 13335.732591 0003 0039 -1
E: 13335.732591 0003 002f 6
E: 13335.732591 0003 0039 -1
E: 13335.732591 0003 002f 7
E: 13335.732591 0003 0039 -1
E: 13335.732591 0003 002f 8
E: 13335.732591 0003 0039 -1
E: 13335.732591 0003 002f 9
E: 13335.732591 0003 0039 -1
E: 13335.732591 0003 002f 10
E: 13335.732591 0003 0039 -1
E: 13335.732591 0003 002f 11
E: 13335.732591 0003 0039 -1
E: 13335.732591 0003 002f 12
E: 13335.732591 0003 0039 -1
E: 13335.732591 0003 002f 13
E: 13335.732591 0003 0039 -1
E: 13335.732591 0003 002f 14
E: 13335.732591 0003 0039 -1
E: 13335.732591 0003 002f 15
E: 13335.732591 0003 0039 -1
E: 13335.732591 0003 002f 0
E: 13335.732591 0000 0000 0
E: 13335.738590 0002 0000 5
E: 13335.738590 0000 0000 0
E: 13335.744648 0002 0000 4
E: 13335.744648 0002 0001 -1
E: 13335.744648 0000 0000 0
E: 13335.750593 0002 0000 2
E: 13335.750593 0000 0000 0
E: 13335.756591 0002 0000 2
E: 13335.756591 0000 0000 0
E: 13335.762595 0002 0000 2
E: 13335.762595 0000 0000 0
E: 13335.768609 0002 0000 1
E: 13335.768609 0002 0001 -1
E: 13335.768609 0000 0000 0
E: 13335.774593 0002 0000 1
E: 13335.774593 0000 0000 0
E: 13335.780595 0002 0000 2
E: 13335.780595 0000 0000 0
E: 13335.792593 0002 0000 1
E: 13335.792593 0000 0000 0
E: 13335.798592 0002 0000 1
E: 13335.798592 0000 0000 0
E: 13335.804609 0002 0001 -1
E: 13335.804609 0000 0000 0
E: 13335.816598 0002 0000 1
E: 13335.816598 0000 0000 0
E: 13336.144594 0002 0000 -2
E: 13336.144594 0000 0000 0
E: 13336.150593 0002 0000 -2
E: 13336.150593 0000 0000 0
E: 13336.156591 0002 0000 -4
E: 13336.156591 0002 0001 1
E: 13336.156591 0000 0000 0
E: 13336.162594 0002 0000 -5
E: 13336.162594 0002 0001 1
E: 13336.162594 0000 0000 0
E: 13336.168589 0002 0000 -2
E: 13336.168589 0002 0001 1
E: 13336.168589 0000 0000 0
E: 13336.174591 0002 0000 -4
E: 13336.174591 0002 0001 1
E: 13336.174591 0000 0000 0
E: 13336.180593 0002 0000 -4
E: 13336.180593 0002 0001 2
E: 13336.180593 0000 0000 0
E: 13336.186591 0002 0000 -3
E: 13336.186591 0002 0001 1
E: 13336.186591 0000 0000 0
E: 13336.192593 0002 0000 -5
E: 13336.192593 0002 0001 2
E: 13336.192593 0000 0000 0
E: 13336.198592 0002 0000 -4
E: 13336.198592 0002 0001 2
E: 13336.198592 0000 0000 0
E: 13336.204590 0002 0000 -3
E: 13336.204590 0002 0001 1
E: 13336.204590 0000 0000 0
E: 13336.210592 0002 0000 -4
E: 13336.210592 0002 0001 2
E: 13336.210592 0000 0000 0
E: 13336.216629 0002 0000 -5
E: 13336.216629 0002 0001 1
E: 13336.216629 0000 0000 0
E: 13336.222589 0002 0000 -4
E: 13336.222589 0002 0001 1
E: 13336.222589 0000 0000 0
E: 13336.228603 0002 0000 -8
E: 13336.228603 0002 0001 1
E: 13336.228603 0000 0000 0
E: 13336.234588 0002 0000 -8
E: 13336.234588 0002 0001 1
E: 13336.234588 0000 0000 0
E: 13336.240590 0002 0000 -4
E: 13336.240590 0000 0000 0
E: 13336.246595 0002 0000 -9
E: 13336.246595 0002 0001 1
E: 13336.246595 0000 0000 0
E: 13336.252590 0002 0000 -10
E: 13336.252590 0002 0001 1
E: 13336.252590 0000 0000 0
E: 13336.260593 0002 0000 -6
E: 13336.260593 0000 0000 0
E: 13336.266602 0002 0000 -11
E: 13336.266602 0002 0001 1
E: 13336.266602 0000 0000 0
E: 13336.272591 0002 0000 -5
E: 13336.272591 0000 0000 0
E: 13336.276595 0002 0000 -10
E: 13336.276595 0002 0001 1
E: 13336.276595 0000 0000 0
E: 13336.284592 0002 0000 -9
E: 13336.284592 0002 0001 1
E: 13336.284592 0000 0000 0
E: 13336.290588 0002 0000 -4
E: 13336.290588 0000 0000 0
E: 13336.296592 0002 0000 -8
E: 13336.296592 0002 0001 1
E: 13336.296592 0000 0000 0
E: 13336.302593 0002 0000 -7
E: 13336.302593 0002 0001 1
E: 13336.302593 0000 0000 0
E: 13336.308590 0002 0000 -4
E: 13336.308590 0000 0000 0
E: 13336.314609 0002 0000 -8
E: 13336.314609 0002 0001 1
E: 13336.314609 0000 0000 0
E: 13336.320601 0002 0000 -9
E: 13336.320601 0000 0000 0
E: 13336.326588 0002 0000 -4
E: 13336.326588 0000 0000 0
E: 13336.332609 0002 0000 -7
E: 13336.332609 0000 0000 0
E: 13336.338584 0002 0000 -6
E: 13336.338584 0000 0000 0
E: 13336.344588 0002 0000 -2
E: 13336.344588 0000 0000 0
E: 13336.350591 0002 0000 -5
E: 13336.350591 0000 0000 0
E: 13336.356587 0002 0000 -5
E: 13336.356587 0000 0000 0
E: 13336.362590 0002 0000 -2
E: 13336.362590 0000 0000 0
E: 13336.368592 0002 0000 -5
E: 13336.368592 0000 0000 0
E: 13336.374587 0002 0000 -4
E: 13336.374587 0000 0000 0
E: 13336.380590 0002 0000 -2
E: 13336.380590 0000 0000 0
E: 13336.386604 0002 0000 -3
E: 13336.386604 0000 0000 0
E: 13336.392589 0002 0000 -2
E: 13336.392589 0000 0000 0
E: 13336.398591 0002 0000 -1
E: 13336.398591 0000 0000 0
E: 13336.440588 0002 0000 1
E: 13336.440588 0000 0000 0
E: 13336.446590 0002 0000 1
E: 13336.446590 0000 0000 0
E: 13336.452604 0002 0000 2
E: 13336.452604 0000 0000 0
E: 13336.460587 0002 0000 3
E: 13336.460587 0002 0001 -1
E: 13336.460587 0000 0000 0
E: 13336.466609 0002 0000 2
E: 13336.466609 0000 0000 0
E: 13336.472587 0002 0000 3
E: 13336.472587 0002 0001 -1
E: 13336.472587 0000 0000 0
E: 13336.476588 0002 0000 4
E: 13336.476588 0000 0000 0
E: 13336.484608 0002 0000 1
E: 13336.484608 0002 0001 -1
E: 13336.484608 0000 0000 0
E: 13336.490588 0002 0000 4
E: 13336.490588 0000 0000 0
E: 13336.496589 0002 0000 4
E: 13336.496589 0002 0001 -1
E: 13336.496589 0000 0000 0
E: 13336.502603 0002 0000 1
E: 13336.502603 0000 0000 0
E: 13336.508587 0002 0000 4
E: 13336.508587 0002 0001 -1
E: 13336.508587 0000 0000 0
E: 13336.514600 0002 0000 3
E: 13336.514600 0000 0000 0
E: 13336.520602 0002 0000 2
E: 13336.520602 0000 0000 0
E: 13336.526585 0002 0000 4
E: 13336.526585 0000 0000 0
E: 13336.532594 0002 0000 5
E: 13336.532594 0000 0000 0
E: 13336.538587 0002 0000 2
E: 13336.538587 0000 0000 0
E: 13336.544589 0002 0000 5
E: 13336.544589 0000 0000 0
E: 13336.550587 0002 0000 6
E: 13336.550587 0000 0000 0
E: 13336.556587 0002 0000 2
E: 13336.556587 0000 0000 0
E: 13336.562587 0002 0000 6
E: 13336.562587 0000 0000 0
E: 13336.568597 0002 0000 5
E: 13336.568597 0002 0001 1
E: 13336.568597 0000 0000 0
E: 13336.574588 0002 0000 2
E: 13336.574588 0000 0000 0
E: 13336.582588 0002 0000 6
E: 13336.582588 0000 0000 0
E: 13336.586592 0003 0039 283
E: 13336.586592 0003 0035 475
E: 13336.586592 0003 0036 796
E: 13336.586592 0003 003a 99
E: 13336.586592 0001 014a 1
E: 13336.586592 0001 0145 1
E: 13336.586592 0000 0000 0
E: 13336.594589 0002 0000 8
E: 13336.594589 0000 0000 0
E: 13336.598592 0003 0035 474
E: 13336.598592 0003 0036 797
E: 13336.598592 0003 003a 82
E: 13336.598592 0000 0000 0
E: 13336.604587 0002 0000 9
E: 13336.604587 0000 0000 0
E: 13336.612586 0002 0000 5
E: 13336.612586 0000 0000 0
E: 13336.616590 0003 0035 473
E: 13336.616590 0003 0036 796
E: 13336.616590 0003 003a 99
E: 13336.616590 0000 0000 0
E: 13336.624589 0002 0000 5
E: 13336.624589 0002 0001 -1
E: 13336.624589 0000 0000 0
E: 13336.634589 0002 0000 2
E: 13336.634589 0000 0000 0
E: 13336.648593 0003 0036 794
E: 13336.648593 0000 0000 0
E: 13336.654584 0002 0000 1
E: 13336.654584 0000 0000 0
E: 13336.660580 0002 0000 1
E: 13336.660580 0002 0001 -1
E: 13336.660580 0000 0000 0
E: 13336.666587 0003 0035 474
E: 13336.666587 0003 0036 786
E: 13336.666587 0003 003a 98
E: 13336.666587 0000 0000 0
E: 13336.672582 0002 0000 3
E: 13336.672582 0000 0000 0
E: 13336.678586 0003 0036 771
E: 13336.678586 0003 003a 82
E: 13336.678586 0000 0000 0
E: 13336.684581 0002 0000 3
E: 13336.684581 0002 0001 -1
E: 13336.684581 0000 0000 0
E: 13336.690580 0002 0000 3
E: 13336.690580 0000 0000 0
E: 13336.696585 0003 0035 479
E: 13336.696585 0003 0036 742
E: 13336.696585 0003 003a 50
E: 13336.696585 0000 0000 0
E: 13336.702581 0002 0000 3
E: 13336.702581 0002 0001 -1
E: 13336.702581 0000 0000 0
E: 13336.708586 0003 0035 482
E: 13336.708586 0003 0036 667
E: 13336.708586 0003 003a 98
E: 13336.708586 0000 0000 0
E: 13336.714585 0002 0000 3
E: 13336.714585 0000 0000 0
E: 13336.720584 0002 0001 -1
E: 13336.720584 0000 0000 0
E: 13336.726611 0003 0035 487
E: 13336.726611 0003 0036 596
E: 13336.726611 0003 003a 66
E: 13336.726611 0000 0000 0
E: 13336.732600 0002 0000 2
E: 13336.732600 0000 0000 0
E: 13336.738589 0003 0035 495
E: 13336.738589 0003 0036 540
E: 13336.738589 0000 0000 0
E: 13336.756605 0003 0035 508
E: 13336.756605 0003 0036 501
E: 13336.756605 0003 003a 68
E: 13336.756605 0000 0000 0
E: 13336.768585 0003 0035 515
E: 13336.768585 0003 0036 464
E: 13336.768585 0003 003a 100
E: 13336.768585 0000 0000 0
E: 13336.774597 0002 0000 2
E: 13336.774597 0000 0000 0
E: 13336.786601 0003 0035 523
E: 13336.786601 0003 0036 433
E: 13336.786601 0003 003a 86
E: 13336.786601 0000 0000 0
E: 13336.792601 0002 0000 1
E: 13336.792601 0002 0001 2
E: 13336.792601 0000 0000 0
E: 13336.806595 0003 0035 556
E: 13336.806595 0003 0036 403
E: 13336.806595 0003 003a 37
E: 13336.806595 0000 0000 0
E: 13336.812602 0002 0000 2
E: 13336.812602 0002 0001 2
E: 13336.812602 0000 0000 0
E: 13336.818602 0003 0039 -1
E: 13336.818602 0001 014a 0
E: 13336.818602 0001 0145 0
E: 13336.818602 0000 0000 0
E: 13336.824586 0002 0000 2
E: 13336.824586 0002 0001 1
E: 13336.824586 0000 0000 0
E: 13336.830604 0002 0001 1
E: 13336.830604 0000 0000 0
E: 13336.878603 0002 0000 2
E: 13336.878603 0000 0000 0
E: 13336.884585 0002 0000 1
E: 13336.884585 0000 0000 0
E: 13336.890623 0002 0000 1
E: 13336.890623 0000 0000 0
E: 13336.896619 0002 0000 2
E: 13336.896619 0000 0000 0
E: 13336.902619 0002 0000 1
E: 13336.902619 0000 0000 0
E: 13336.908606 0002 0000 1
E: 13336.908606 0000 0000 0
E: 13336.914614 0002 0000 1
E: 13336.914614 0000 0000 0
E: 13336.920593 0002 0000 1
E: 13336.920593 0002 0001 2
E: 13336.920593 0000 0000 0
E: 13336.932622 0002 0001 1
E: 13336.932622 0000 0000 0
E: 13336.938601 0002 0001 1
E: 13336.938601 0000 0000 0
E: 13336.944584 0002 0001 1
E: 13336.944584 0000 0000 0
E: 13336.956599 0002 0000 -1
E: 13336.956599 0000 0000 0
E: 13336.962595 0002 0000 -1
E: 13336.962595 0000 0000 0
E: 13336.968598 0002 0000 -1
E: 13336.968598 0000 0000 0
E: 13336.974600 0002 0000 -1
E: 13336.974600 0000 0000 0
E: 13336.980594 0002 0000 -1
E: 13336.980594 0002 0001 1
E: 13336.980594 0000 0000 0
E: 13336.986597 0002 0000 -2
E: 13336.986597 0000 0000 0
E: 13336.998596 0002 0000 -1
E: 13336.998596 0002 0001 1
E: 13336.998596 0000 0000 0
E: 13337.004585 0002 0000 -2
E: 13337.004585 0000 0000 0
E: 13337.016602 0002 0000 -1
E: 13337.016602 0000 0000 0
E: 13337.022609 0002 0000 -1
E: 13337.022609 0002 0001 1
E: 13337.022609 0000 0000 0
E: 13337.042598 0002 0000 -1
E: 13337.042598 0000 0000 0
E: 13337.084613 0002 0000 -1
E: 13337.084613 0000 0000 0
E: 13337.090603 0002 0000 -1
E: 13337.090603 0002 0001 1
E: 13337.090603 0000 0000 0
E: 13337.102671 0002 0000 -1
E: 13337.102671 0000 0000 0
E: 13337.108608 0002 0000 -1
E: 13337.108608 0000 0000 0
E: 13337.120603 0002 0000 -1
E: 13337.120603 0002 0001 1
E: 13337.120603 0000 0000 0
E: 13337.132614 0002 0000 -1
E: 13337.132614 0000 0000 0
E: 13337.174609 0002 0000 -1
E: 13337.174609 0000 0000 0
E: 13337.192596 0002 0000 -1
E: 13337.192596 0002 0001 -2
E: 13337.192596 0000 0000 0
E: 13337.198597 0002 0000 -1
E: 13337.198597 0002 0001 -4
E: 13337.198597 0000 0000 0
E: 13337.204594 0002 0000 -1
E: 13337.204594 0002 0001 -1
E: 13337.204594 0000 0000 0
E: 13337.212607 0002 0001 -2
E: 13337.212607 0000 0000 0
E: 13337.224603 0002 0000 -1
E: 13337.224603 0000 0000 0
E: 13337.242604 0002 0001 -1
E: 13337.242604 0000 0000 0
E: 13337.254598 0002 0001 -2
E: 13337.254598 0000 0000 0
E: 13337.260597 0002 0000 -1
E: 13337.260597 0000 0000 0
E: 13337.272597 0002 0001 -1
E: 13337.272597 0000 0000 0
E: 13337.278595 0002 0000 -1
E: 13337.278595 0000 0000 0
E: 13337.284594 0002 0001 -1
E: 13337.284594 0000 0000 0
E: 13337.496610 0002 0001 -1
E: 13337.496610 0000 0000 0
E: 13337.562611 0002 0001 -1
E: 13337.562611 0000 0000 0
E: 13337.563111 0003 002f 0
E: 13337.563111 0003 0039 -1
E: 13337.563111 0003 002f 1
E: 13337.563111 0003 0039 -1
E: 13337.563111 0003 002f 2
E: 13337.563111 0003 0039 -1
E: 13337.563111 0003 002f 3
E: 13337.563111 0003 0039 -1
E: 13337.563111 0003 002f 4
E: 13337.563111 0003 0039 -1
E: 13337.563111 0003 002f 5
E: 13337.563111 0003 0039 -1
E: 13337.563111 0003 002f 6
E: 13337.563111 0003 0039 -1
E: 13337.563111 0003 002f 7
E: 13337.563111 0003 0039 -1
E: 13337.563111 0003 002f 8
E: 13337.563111 0003 0039 -1
E: 13337.563111 0003 002f 9
E: 13337.563111 0003 0039 -1
E: 13337.563111 0003 002f 10
E: 13337.563111 0003 0039 -1
E: 13337.563111 0003 002f 11
E: 13337.563111 0003 0039 -1
E: 13337.563111 0003 002f 12
E: 13337.563111 0003 0039 -1
E: 13337.563111 0003 002f 13
E: 13337.563111 0003 0039 -1
E: 13337.563111 0003 002f 14
E: 13337.563111 0003 0039 -1
E: 13337.563111 0003 002f 15
E: 13337.563111 0003 0039 -1
