# device: Atmel maXTouch Touchpad
# bit: 0B 00 00 00 00 00 00 00
# key: 00 00 00 00 00 00 00 00 00 00 00 00 00 00 00 00 00 00 00 00 00 00 00 00 00 00 00 00 00 00 00 00 00 00 01 00 00 00 00 00 20 E5 00 00 00 00 00 00 00 00 00 00 00 00 00 00 00 00 00 00 00 00 00 00 00 00 00 00 00 00 00 00 00 00 00 00 00 00 00 00 00 00 00 00 00 00 00 00 00 00 00 00 00 00 00 00
# rel: 00 00 00 00 00 00 00 00
# abs: 03 00 00 01 00 80 61 06
# led: 00 00 00 00 00 00 00 00
# prp: 05 00 00 00 00 00 00 00
# absinfo: 0 0 2039 0 0 20
# absinfo: 1 0 1359 0 0 20
# absinfo: 24 0 255 0 0 0
# absinfo: 47 0 9 0 0 0
# absinfo: 48 0 1878 0 0 0
# absinfo: 53 0 2039 0 0 20
# absinfo: 54 0 1359 0 0 20
# absinfo: 57 0 65535 0 0 0
# absinfo: 58 0 255 0 0 0
E: 3588.477963 0003 002f 0
E: 3588.477963 0003 0030 258
E: 3588.477963 0003 0031 0
E: 3588.477963 0003 0032 0
E: 3588.477963 0003 0033 0
E: 3588.477963 0003 0034 0
E: 3588.477963 0003 0035 1584
E: 3588.477963 0003 0036 566
E: 3588.477963 0003 0037 0
E: 3588.477963 0003 0038 0
E: 3588.477963 0003 0039 1598
E: 3588.477963 0003 003a 27
E: 3588.477963 0003 003b 0
E: 3588.477963 0003 002f 1
E: 3588.477963 0003 0039 -1
E: 3588.477963 0003 002f 2
E: 3588.477963 0003 0039 -1
E: 3588.477963 0003 002f 3
E: 3588.477963 0003 0039 -1
E: 3588.477963 0003 002f 4
E: 3588.477963 0003 0039 -1
E: 3588.477963 0003 002f 5
E: 3588.477963 0003 0039 -1
E: 3588.477963 0003 002f 6
E: 3588.477963 0003 0039 -1
E: 3588.477963 0003 002f 7
E: 3588.477963 0003 0039 -1
E: 3588.477963 0003 002f 8
E: 3588.477963 0003 0039 -1
E: 3588.477963 0003 002f 9
E: 3588.477963 0003 0039 -1
E: 3588.477963 0003 002f 0
E: 3588.477963 0001 0145 1
E: 3588.477963 0001 014a 1
E: 3588.477963 0000 0000 0
E: 3588.482235 0003 0036 565
E: 3588.482238 0003 003a 26
E: 3588.482244 0003 0001 565
E: 3588.482246 0003 0018 26
E: 3588.482248 0000 0000 0
E: 3588.491053 0003 003a 27
E: 3588.491061 0003 0018 27
E: 3588.491063 0000 0000 0
E: 3588.495469 0003 003a 28
E: 3588.495477 0003 0018 28
E: 3588.495479 0000 0000 0
E: 3588.499874 0003 003a 29
E: 3588.499881 0003 0018 29
E: 3588.499883 0000 0000 0
E: 3588.512698 0003 003a 27
E: 3588.512706 0003 0018 27
E: 3588.512708 0000 0000 0
E: 3588.517074 0003 0036 566
E: 3588.517077 0003 003a 29
E: 3588.517083 0003 0001 566
E: 3588.517085 0003 0018 29
E: 3588.517087 0000 0000 0
E: 3588.521502 0003 003a 28
E: 3588.521510 0003 0018 28
E: 3588.521512 0000 0000 0
E: 3588.525903 0003 003a 26
E: 3588.525911 0003 0018 26
E: 3588.525913 0000 0000 0
E: 3588.530332 0003 0036 565
E: 3588.530335 0003 003a 30
E: 3588.530337 0003 0030 290
E: 3588.530342 0003 0001 565
E: 3588.530344 0003 0018 30
E: 3588.530346 0000 0000 0
E: 3588.534742 0003 003a 27
E: 3588.534744 0003 0030 258
E: 3588.534751 0003 0018 27
E: 3588.534753 0000 0000 0
E: 3588.539142 0003 0036 566
E: 3588.539145 0003 003a 30
E: 3588.539147 0003 0030 318
E: 3588.539153 0003 0001 566
E: 3588.539155 0003 0018 30
E: 3588.539157 0000 0000 0
E: 3588.543576 0003 0035 1581
E: 3588.543580 0003 0036 565
E: 3588.543581 0003 003a 27
E: 3588.543583 0003 0030 342
E: 3588.543588 0003 0000 1581
E: 3588.543590 0003 0001 565
E: 3588.543592 0003 0018 27
E: 3588.543594 0000 0000 0
E: 3588.547978 0003 0035 1577
E: 3588.547981 0003 0036 566
E: 3588.547983 0003 003a 32
E: 3588.547988 0003 0000 1577
E: 3588.547990 0003 0001 566
E: 3588.547992 0003 0018 32
E: 3588.547994 0000 0000 0
E: 3588.551908 0003 0035 1569
E: 3588.551911 0003 0036 565
E: 3588.551913 0003 003a 28
E: 3588.551915 0003 0030 366
E: 3588.551919 0003 0000 1569
E: 3588.551921 0003 0001 565
E: 3588.551923 0003 0018 28
E: 3588.551925 0000 0000 0
E: 3588.560874 0003 0035 1554
E: 3588.560876 0003 0036 562
E: 3588.560878 0003 003a 32
E: 3588.560884 0003 0000 1554
E: 3588.560886 0003 0001 562
E: 3588.560888 0003 0018 32
E: 3588.560890 0000 0000 0
E: 3588.565261 0003 0035 1534
E: 3588.565264 0003 0036 559
E: 3588.565267 0003 0030 388
E: 3588.565272 0003 0000 1534
E: 3588.565274 0003 0001 559
E: 3588.565277 0000 0000 0
E: 3588.569655 0003 0035 1525
E: 3588.569658 0003 0036 558
E: 3588.569660 0003 003a 28
E: 3588.569666 0003 0000 1525
E: 3588.569668 0003 0001 558
E: 3588.569670 0003 0018 28
E: 3588.569672 0000 0000 0
E: 3588.574050 0003 0035 1514
E: 3588.574054 0003 0036 556
E: 3588.574056 0003 003a 35
E: 3588.574062 0003 0000 1514
E: 3588.574064 0003 0001 556
E: 3588.574066 0003 0018 35
E: 3588.574068 0000 0000 0
E: 3588.578455 0003 0035 1502
E: 3588.578459 0003 0036 554
E: 3588.578465 0003 0000 1502
E: 3588.578468 0003 0001 554
E: 3588.578471 0000 0000 0
E: 3588.582870 0003 0035 1497
E: 3588.582874 0003 003a 31
E: 3588.582881 0003 0000 1497
E: 3588.582883 0003 0018 31
E: 3588.582885 0000 0000 0
E: 3588.587305 0003 0035 1480
E: 3588.587309 0003 0036 552
E: 3588.587317 0003 0000 1480
E: 3588.587319 0003 0001 552
E: 3588.587321 0000 0000 0
E: 3588.591698 0003 0035 1471
E: 3588.591702 0003 0036 551
E: 3588.591710 0003 0000 1471
E: 3588.591712 0003 0001 551
E: 3588.591716 0000 0000 0
E: 3588.596119 0003 0035 1451
E: 3588.596123 0003 0036 549
E: 3588.596125 0003 003a 32
E: 3588.596132 0003 0000 1451
E: 3588.596134 0003 0001 549
E: 3588.596137 0003 0018 32
E: 3588.596139 0000 0000 0
E: 3588.600068 0003 0035 1445
E: 3588.600073 0003 0036 548
E: 3588.600076 0003 003a 33
E: 3588.600084 0003 0000 1445
E: 3588.600087 0003 0001 548
E: 3588.600090 0003 0018 33
E: 3588.600092 0000 0000 0
E: 3588.608981 0003 0035 1440
E: 3588.608986 0003 0036 547
E: 3588.608989 0003 0030 410
E: 3588.608995 0003 0000 1440
E: 3588.608999 0003 0001 547
E: 3588.609002 0000 0000 0
E: 3588.613480 0003 0035 1442
E: 3588.613485 0003 0030 388
E: 3588.613493 0003 0000 1442
E: 3588.613497 0000 0000 0
E: 3588.617827 0003 0035 1437
E: 3588.617831 0003 003a 35
E: 3588.617833 0003 0030 430
E: 3588.617839 0003 0000 1437
E: 3588.617842 0003 0018 35
E: 3588.617844 0000 0000 0
E: 3588.622208 0003 003a 33
E: 3588.622212 0003 0030 410
E: 3588.622222 0003 0018 33
E: 3588.622224 0000 0000 0
E: 3588.626598 0003 0035 1435
E: 3588.626603 0003 0036 546
E: 3588.626611 0003 0000 1435
E: 3588.626613 0003 0001 546
E: 3588.626616 0000 0000 0
E: 3588.631010 0003 0035 1431
E: 3588.631014 0003 003a 35
E: 3588.631017 0003 0030 430
E: 3588.631022 0003 0000 1431
E: 3588.631025 0003 0018 35
E: 3588.631027 0000 0000 0
E: 3588.637930 0003 0035 1370
E: 3588.637934 0003 0036 540
E: 3588.637938 0003 003a 32
E: 3588.637941 0003 0030 342
E: 3588.637949 0003 0000 1370
E: 3588.637952 0003 0001 540
E: 3588.637956 0003 0018 32
E: 3588.637958 0000 0000 0
E: 3588.645280 0003 0035 1323
E: 3588.645284 0003 0036 534
E: 3588.645287 0003 003a 34
E: 3588.645295 0003 0000 1323
E: 3588.645297 0003 0001 534
E: 3588.645299 0003 0018 34
E: 3588.645302 0000 0000 0
E: 3588.652484 0003 0035 1313
E: 3588.652488 0003 0036 533
E: 3588.652490 0003 003a 32
E: 3588.652493 0003 0030 318
E: 3588.652499 0003 0000 1313
E: 3588.652501 0003 0001 533
E: 3588.652504 0003 0018 32
E: 3588.652506 0000 0000 0
E: 3588.660362 0003 0035 1307
E: 3588.660366 0003 0036 532
E: 3588.660368 0003 003a 36
E: 3588.660371 0003 0030 342
E: 3588.660374 0003 002f 1
E: 3588.660375 0003 0039 1599
E: 3588.660379 0003 0035 1546
E: 3588.660381 0003 0036 561
E: 3588.660383 0003 003a 34
E: 3588.660385 0003 0030 290
E: 3588.660389 0001 0145 0
E: 3588.660392 0001 014d 1
E: 3588.660395 0003 0000 1307
E: 3588.660398 0003 0001 532
E: 3588.660400 0003 0018 36
E: 3588.660402 0000 0000 0
E: 3588.671633 0003 002f 0
E: 3588.671637 0003 0035 1303
E: 3588.671640 0003 0036 531
E: 3588.671643 0003 003a 35
E: 3588.671646 0003 0030 318
E: 3588.671659 0003 0000 1303
E: 3588.671662 0003 0001 531
E: 3588.671664 0003 0018 35
E: 3588.671666 0000 0000 0
E: 3588.679142 0003 0035 1299
E: 3588.679145 0003 0036 530
E: 3588.679148 0003 0030 342
E: 3588.679153 0003 002f 1
E: 3588.679154 0003 0035 1547
E: 3588.679162 0003 0000 1299
E: 3588.679164 0003 0001 530
E: 3588.679167 0000 0000 0
E: 3588.686383 0003 002f 0
E: 3588.686386 0003 0035 1296
E: 3588.686388 0003 003a 29
E: 3588.686395 0003 0000 1296
E: 3588.686398 0003 0018 29
E: 3588.686400 0000 0000 0
E: 3588.694140 0003 003a 36
E: 3588.694145 0003 0030 318
E: 3588.694155 0003 002f 1
E: 3588.694157 0003 003a 35
E: 3588.694160 0003 0030 318
E: 3588.694169 0003 0018 36
E: 3588.694172 0000 0000 0
E: 3588.701504 0003 002f 0
E: 3588.701507 0003 0035 1295
E: 3588.701509 0003 0036 529
E: 3588.701512 0003 003a 31
E: 3588.701514 0003 0030 290
E: 3588.701523 0003 002f 1
E: 3588.701525 0003 003a 33
E: 3588.701528 0003 0030 290
E: 3588.701535 0003 0000 1295
E: 3588.701538 0003 0001 529
E: 3588.701540 0003 0018 31
E: 3588.701543 0000 0000 0
E: 3588.708878 0003 002f 0
E: 3588.708882 0003 0035 1294
E: 3588.708887 0003 003a 33
E: 3588.708891 0003 0030 342
E: 3588.708901 0003 002f 1
E: 3588.708903 0003 003a 29
E: 3588.708914 0003 0000 1294
E: 3588.708919 0003 0018 33
E: 3588.708922 0000 0000 0
E: 3588.716650 0003 002f 0
E: 3588.716653 0003 0035 1293
E: 3588.716658 0003 003a 38
E: 3588.716660 0003 0030 366
E: 3588.716669 0003 002f 1
E: 3588.716670 0003 003a 35
E: 3588.716673 0003 0030 318
E: 3588.716683 0003 0000 1293
E: 3588.716688 0003 0018 38
E: 3588.716691 0000 0000 0
E: 3588.723978 0003 002f 0
E: 3588.723981 0003 003a 37
E: 3588.723983 0003 0030 342
E: 3588.723988 0003 002f 1
E: 3588.723989 0003 0035 1546
E: 3588.723992 0003 003a 31
E: 3588.723994 0003 0030 258
E: 3588.724002 0003 0018 37
E: 3588.724004 0000 0000 0
E: 3588.731308 0003 002f 0
E: 3588.731311 0003 0035 1292
E: 3588.731315 0003 003a 34
E: 3588.731325 0003 0000 1292
E: 3588.731329 0003 0018 34
E: 3588.731332 0000 0000 0
E: 3588.739029 0003 0035 1291
E: 3588.739034 0003 003a 36
E: 3588.739043 0003 002f 1
E: 3588.739045 0003 003a 33
E: 3588.739047 0003 0030 290
E: 3588.739054 0003 0000 1291
E: 3588.739057 0003 0018 36
E: 3588.739059 0000 0000 0
E: 3588.750587 0003 002f 0
E: 3588.750590 0003 003a 35
E: 3588.750597 0003 002f 1
E: 3588.750599 0003 003a 32
E: 3588.750609 0003 0018 35
E: 3588.750611 0000 0000 0
E: 3588.758280 0003 002f 0
E: 3588.758283 0003 003a 37
E: 3588.758292 0003 002f 1
E: 3588.758293 0003 003a 35
E: 3588.758295 0003 0030 318
E: 3588.758305 0003 0018 37
E: 3588.758308 0000 0000 0
E: 3588.765710 0003 002f 0
E: 3588.765713 0003 0035 1290
E: 3588.765716 0003 0036 528
E: 3588.765718 0003 003a 35
E: 3588.765720 0003 0030 318
E: 3588.765728 0003 002f 1
E: 3588.765730 0003 0036 560
E: 3588.765732 0003 003a 34
E: 3588.765742 0003 0000 1290
E: 3588.765745 0003 0001 528
E: 3588.765748 0003 0018 35
E: 3588.765750 0000 0000 0
E: 3588.773179 0003 003a 32
E: 3588.773183 0003 0030 290
E: 3588.773192 0000 0000 0
E: 3588.780823 0003 002f 0
E: 3588.780826 0003 0030 342
E: 3588.780832 0003 002f 1
E: 3588.780835 0003 0035 1545
E: 3588.780838 0003 0030 318
E: 3588.780851 0000 0000 0
E: 3588.788410 0003 002f 0
E: 3588.788413 0003 0035 1289
E: 3588.788429 0003 002f 1
E: 3588.788431 0003 0030 290
E: 3588.788443 0003 0000 1289
E: 3588.788450 0000 0000 0
E: 3588.795497 0003 002f 0
E: 3588.795500 0003 0036 527
E: 3588.795504 0003 0030 290
E: 3588.795514 0003 0001 527
E: 3588.795518 0000 0000 0
E: 3588.803008 0003 002f 1
E: 3588.803011 0003 0036 559
E: 3588.803013 0003 003a 33
E: 3588.803016 0003 0030 318
E: 3588.803026 0000 0000 0
E: 3588.810559 0003 002f 0
E: 3588.810562 0003 0035 1288
E: 3588.810567 0003 0030 342
E: 3588.810577 0003 002f 1
E: 3588.810578 0003 003a 30
E: 3588.810581 0003 0030 258
E: 3588.810591 0003 0000 1288
E: 3588.810596 0000 0000 0
E: 3588.817786 0003 002f 0
E: 3588.817790 0003 003a 36
E: 3588.817797 0003 002f 1
E: 3588.817799 0003 0035 1544
E: 3588.817802 0003 003a 29
E: 3588.817812 0003 0018 36
E: 3588.817814 0000 0000 0
E: 3588.828742 0003 002f 0
E: 3588.828746 0003 0035 1287
E: 3588.828751 0003 003a 30
E: 3588.828760 0003 0000 1287
E: 3588.828763 0003 0018 30
E: 3588.828765 0000 0000 0
E: 3588.836656 0003 003a 36
E: 3588.836667 0003 002f 1
E: 3588.836669 0003 003a 32
E: 3588.836671 0003 0030 318
E: 3588.836682 0003 0018 36
E: 3588.836685 0000 0000 0
E: 3588.844470 0003 002f 0
E: 3588.844473 0003 003a 37
E: 3588.844475 0003 0030 366
E: 3588.844483 0003 002f 1
E: 3588.844484 0003 003a 31
E: 3588.844486 0003 0030 290
E: 3588.844494 0003 0018 37
E: 3588.844497 0000 0000 0
E: 3588.851993 0003 002f 0
E: 3588.851997 0003 0036 526
E: 3588.852000 0003 003a 34
E: 3588.852003 0003 0030 290
E: 3588.852010 0003 002f 1
E: 3588.852012 0003 003a 34
E: 3588.852021 0003 0001 526
E: 3588.852023 0003 0018 34
E: 3588.852025 0000 0000 0
E: 3588.859449 0003 002f 0
E: 3588.859451 0003 0035 1286
E: 3588.859454 0003 003a 36
E: 3588.859457 0003 0030 342
E: 3588.859463 0003 002f 1
E: 3588.859464 0003 003a 31
E: 3588.859472 0003 0000 1286
E: 3588.859475 0003 0018 36
E: 3588.859477 0000 0000 0
E: 3588.866819 0003 003a 33
E: 3588.866823 0003 0030 318
E: 3588.866836 0000 0000 0
E: 3588.874478 0003 002f 0
E: 3588.874481 0003 003a 37
E: 3588.874487 0003 002f 1
E: 3588.874488 0003 0036 558
E: 3588.874490 0003 003a 32
E: 3588.874492 0003 0030 290
E: 3588.874499 0003 0018 37
E: 3588.874501 0000 0000 0
E: 3588.881844 0003 002f 0
E: 3588.881848 0003 003a 35
E: 3588.881850 0003 0030 318
E: 3588.881857 0003 002f 1
E: 3588.881858 0003 003a 33
E: 3588.881869 0003 0018 35
E: 3588.881871 0000 0000 0
E: 3588.889076 0003 002f 0
E: 3588.889079 0003 0035 1285
E: 3588.889082 0003 003a 29
E: 3588.889088 0003 002f 1
E: 3588.889089 0003 0035 1543
E: 3588.889092 0003 003a 32
E: 3588.889099 0003 0000 1285
E: 3588.889102 0003 0018 29
E: 3588.889104 0000 0000 0
E: 3588.896243 0003 002f 0
E: 3588.896246 0003 003a 35
E: 3588.896249 0003 0030 342
E: 3588.896259 0003 0018 35
E: 3588.896261 0000 0000 0
E: 3588.907781 0003 002f 1
E: 3588.907784 0003 003a 31
E: 3588.907793 0000 0000 0
E: 3588.915273 0003 002f 0
E: 3588.915276 0003 0035 1284
E: 3588.915280 0003 003a 28
E: 3588.915283 0003 0030 318
E: 3588.915292 0003 002f 1
E: 3588.915294 0003 003a 32
E: 3588.915296 0003 0030 318
E: 3588.915303 0003 0000 1284
E: 3588.915307 0003 0018 28
E: 3588.915310 0000 0000 0
E: 3588.922766 0003 002f 0
E: 3588.922770 0003 0035 1283
E: 3588.922773 0003 0036 525
E: 3588.922775 0003 003a 36
E: 3588.922778 0003 0030 342
E: 3588.922784 0003 002f 1
E: 3588.922786 0003 0036 557
E: 3588.922790 0003 0030 290
E: 3588.922799 0003 0000 1283
E: 3588.922801 0003 0001 525
E: 3588.922804 0003 0018 36
E: 3588.922807 0000 0000 0
E: 3588.930122 0003 002f 0
E: 3588.930125 0003 003a 29
E: 3588.930128 0003 0030 318
E: 3588.930134 0003 002f 1
E: 3588.930135 0003 003a 33
E: 3588.930145 0003 0018 29
E: 3588.930147 0000 0000 0
E: 3588.935284 0003 002f 0
E: 3588.935286 0003 003a 33
E: 3588.935289 0003 0030 450
E: 3588.935297 0003 0018 33
E: 3588.935299 0000 0000 0
E: 3588.943145 0003 003a 36
E: 3588.943149 0003 0030 342
E: 3588.943156 0003 002f 1
E: 3588.943157 0003 003a 32
E: 3588.943159 0003 0030 318
E: 3588.943167 0003 0018 36
E: 3588.943169 0000 0000 0
E: 3588.950854 0003 002f 0
E: 3588.950858 0003 0035 1282
E: 3588.950861 0003 003a 38
E: 3588.950870 0003 002f 1
E: 3588.950871 0003 003a 34
E: 3588.950878 0003 0000 1282
E: 3588.950882 0003 0018 38
E: 3588.950884 0000 0000 0
E: 3588.958515 0003 002f 0
E: 3588.958518 0003 003a 31
E: 3588.958520 0003 0030 388
E: 3588.958529 0003 0018 31
E: 3588.958531 0000 0000 0
E: 3588.965990 0003 003a 39
E: 3588.965994 0003 0030 342
E: 3588.966007 0003 0018 39
E: 3588.966010 0000 0000 0
E: 3588.973718 0003 003a 36
E: 3588.973725 0003 002f 1
E: 3588.973726 0003 0035 1542
E: 3588.973729 0003 0030 290
E: 3588.973737 0003 0018 36
E: 3588.973739 0000 0000 0
E: 3588.984896 0003 002f 0
E: 3588.984899 0003 003a 35
E: 3588.984902 0003 0030 318
E: 3588.984909 0003 002f 1
E: 3588.984911 0003 003a 31
E: 3588.984913 0003 0030 258
E: 3588.984923 0003 0018 35
E: 3588.984926 0000 0000 0
E: 3588.999219 0003 002f 0
E: 3588.999222 0003 003a 34
E: 3588.999233 0003 002f 1
E: 3588.999235 0003 003a 29
E: 3588.999245 0003 0018 34
E: 3588.999247 0000 0000 0
E: 3589.006664 0003 002f 0
E: 3589.006668 0003 003a 36
E: 3589.006672 0003 0030 342
E: 3589.006683 0003 002f 1
E: 3589.006686 0003 003a 30
E: 3589.006690 0003 0030 290
E: 3589.006704 0003 0018 36
E: 3589.006706 0000 0000 0
E: 3589.014329 0003 002f 0
E: 3589.014333 0003 003a 35
E: 3589.014343 0003 002f 1
E: 3589.014345 0003 003a 34
E: 3589.014347 0003 0030 318
E: 3589.014357 0003 0018 35
E: 3589.014360 0000 0000 0
E: 3589.021813 0003 002f 0
E: 3589.021816 0003 003a 36
E: 3589.021823 0003 002f 1
E: 3589.021824 0003 003a 32
E: 3589.021826 0003 0030 290
E: 3589.021834 0003 0018 36
E: 3589.021836 0000 0000 0
E: 3589.036406 0003 002f 0
E: 3589.036408 0003 003a 35
E: 3589.036415 0003 002f 1
E: 3589.036416 0003 0036 556
E: 3589.036426 0003 0018 35
E: 3589.036428 0000 0000 0
E: 3589.044088 0003 002f 0
E: 3589.044091 0003 003a 36
E: 3589.044100 0003 002f 1
E: 3589.044102 0003 0036 557
E: 3589.044104 0003 003a 31
E: 3589.044114 0003 0018 36
E: 3589.044117 0000 0000 0
E: 3589.051301 0003 002f 0
E: 3589.051304 0003 003a 29
E: 3589.051306 0003 0030 318
E: 3589.051313 0003 002f 1
E: 3589.051315 0003 003a 26
E: 3589.051325 0003 0018 29
E: 3589.051327 0000 0000 0
E: 3589.062588 0003 002f 0
E: 3589.062590 0003 003a 34
E: 3589.062592 0003 0030 290
E: 3589.062598 0003 002f 1
E: 3589.062599 0003 003a 23
E: 3589.062607 0003 0018 34
E: 3589.062609 0000 0000 0
E: 3589.070185 0003 002f 0
E: 3589.070188 0003 003a 35
E: 3589.070191 0003 0030 342
E: 3589.070198 0003 002f 1
E: 3589.070200 0003 003a 33
E: 3589.070212 0003 0018 35
E: 3589.070214 0000 0000 0
E: 3589.077781 0003 002f 0
E: 3589.077784 0003 003a 36
E: 3589.077791 0003 002f 1
E: 3589.077793 0003 0035 1543
E: 3589.077806 0003 0018 36
E: 3589.077809 0000 0000 0
E: 3589.085628 0003 002f 0
E: 3589.085631 0003 003a 38
E: 3589.085634 0003 0030 366
E: 3589.085639 0003 002f 1
E: 3589.085640 0003 0035 1542
E: 3589.085643 0003 003a 34
E: 3589.085645 0003 0030 342
E: 3589.085655 0003 0018 38
E: 3589.085657 0000 0000 0
E: 3589.093682 0003 002f 0
E: 3589.093685 0003 003a 39
E: 3589.093692 0003 002f 1
E: 3589.093693 0003 003a 33
E: 3589.093695 0003 0030 290
E: 3589.093703 0003 0018 39
E: 3589.093705 0000 0000 0
E: 3589.101218 0003 002f 0
E: 3589.101220 0003 003a 36
E: 3589.101226 0003 002f 1
E: 3589.101227 0003 0035 1541
E: 3589.101230 0003 0036 556
E: 3589.101232 0003 003a 32
E: 3589.101240 0003 0018 36
E: 3589.101242 0000 0000 0
E: 3589.108577 0003 002f 0
E: 3589.108581 0003 003a 33
E: 3589.108583 0003 0030 318
E: 3589.108590 0003 002f 1
E: 3589.108592 0003 003a 30
E: 3589.108602 0003 0018 33
E: 3589.108605 0000 0000 0
E: 3589.116081 0003 002f 0
E: 3589.116083 0003 0035 1281
E: 3589.116087 0003 003a 30
E: 3589.116089 0003 0030 342
E: 3589.116095 0003 002f 1
E: 3589.116096 0003 003a 32
E: 3589.116102 0003 0000 1281
E: 3589.116105 0003 0018 30
E: 3589.116107 0000 0000 0
E: 3589.123399 0003 002f 0
E: 3589.123401 0003 003a 35
E: 3589.123407 0003 002f 1
E: 3589.123408 0003 0035 1542
E: 3589.123417 0003 0018 35
E: 3589.123420 0000 0000 0
E: 3589.130666 0003 0035 1541
E: 3589.130670 0003 003a 31
E: 3589.130679 0000 0000 0
E: 3589.142193 0003 003a 32
E: 3589.142203 0000 0000 0
E: 3589.149808 0003 002f 0
E: 3589.149811 0003 003a 34
E: 3589.149814 0003 0030 318
E: 3589.149821 0003 002f 1
E: 3589.149823 0003 003a 34
E: 3589.149834 0003 0018 34
E: 3589.149837 0000 0000 0
E: 3589.157755 0003 002f 0
E: 3589.157757 0003 003a 36
E: 3589.157759 0003 0030 366
E: 3589.157766 0003 002f 1
E: 3589.157767 0003 0030 342
E: 3589.157775 0003 0018 36
E: 3589.157777 0000 0000 0
E: 3589.165345 0003 002f 0
E: 3589.165347 0003 0030 342
E: 3589.165353 0003 002f 1
E: 3589.165354 0003 003a 32
E: 3589.165356 0003 0030 290
E: 3589.165364 0000 0000 0
E: 3589.172904 0003 002f 0
E: 3589.172907 0003 003a 35
E: 3589.172921 0003 0018 35
E: 3589.172923 0000 0000 0
E: 3589.180522 0003 003a 36
E: 3589.180535 0003 0018 36
E: 3589.180538 0000 0000 0
E: 3589.188104 0003 003a 37
E: 3589.188112 0003 002f 1
E: 3589.188113 0003 0030 318
E: 3589.188120 0003 0018 37
E: 3589.188122 0000 0000 0
E: 3589.195621 0003 002f 0
E: 3589.195623 0003 003a 36
E: 3589.195630 0003 002f 1
E: 3589.195631 0003 003a 33
E: 3589.195639 0003 0018 36
E: 3589.195641 0000 0000 0
E: 3589.202770 0003 002f 0
E: 3589.202772 0003 003a 28
E: 3589.202774 0003 0030 318
E: 3589.202780 0003 002f 1
E: 3589.202781 0003 003a 31
E: 3589.202783 0003 0030 258
E: 3589.202790 0003 0018 28
E: 3589.202792 0000 0000 0
E: 3589.210252 0003 002f 0
E: 3589.210254 0003 003a 35
E: 3589.210261 0003 002f 1
E: 3589.210262 0003 003a 32
E: 3589.210264 0003 0030 290
E: 3589.210271 0003 0018 35
E: 3589.210273 0000 0000 0
E: 3589.221585 0003 002f 0
E: 3589.221587 0003 003a 34
E: 3589.221592 0003 002f 1
E: 3589.221593 0003 0035 1540
E: 3589.221596 0003 003a 31
E: 3589.221603 0003 0018 34
E: 3589.221605 0000 0000 0
E: 3589.229145 0003 002f 0
E: 3589.229147 0003 003a 37
E: 3589.229149 0003 0030 342
E: 3589.229155 0003 002f 1
E: 3589.229156 0003 003a 32
E: 3589.229163 0003 0018 37
E: 3589.229165 0000 0000 0
E: 3589.236696 0003 002f 0
E: 3589.236698 0003 003a 35
E: 3589.236711 0003 0018 35
E: 3589.236713 0000 0000 0
E: 3589.244232 0003 0030 318
E: 3589.244237 0003 002f 1
E: 3589.244238 0003 0035 1541
E: 3589.244241 0003 003a 34
E: 3589.244243 0003 0030 318
E: 3589.244250 0000 0000 0
E: 3589.251766 0003 002f 0
E: 3589.251768 0003 003a 37
E: 3589.251770 0003 0030 342
E: 3589.251774 0003 002f 1
E: 3589.251775 0003 0035 1540
E: 3589.251778 0003 003a 30
E: 3589.251780 0003 0030 290
E: 3589.251787 0003 0018 37
E: 3589.251789 0000 0000 0
E: 3589.259422 0003 002f 0
E: 3589.259424 0003 0035 1280
E: 3589.259426 0003 0036 524
E: 3589.259428 0003 003a 31
E: 3589.259431 0003 0030 366
E: 3589.259437 0003 002f 1
E: 3589.259438 0003 003a 31
E: 3589.259444 0003 0000 1280
E: 3589.259446 0003 0001 524
E: 3589.259448 0003 0018 31
E: 3589.259450 0000 0000 0
E: 3589.267127 0003 002f 0
E: 3589.267128 0003 003a 35
E: 3589.267130 0003 0030 342
E: 3589.267135 0003 002f 1
E: 3589.267136 0003 0035 1541
E: 3589.267138 0003 003a 33
E: 3589.267140 0003 0030 318
E: 3589.267147 0003 0018 35
E: 3589.267149 0000 0000 0
E: 3589.274453 0003 002f 0
E: 3589.274455 0003 003a 33
E: 3589.274457 0003 0030 318
E: 3589.274463 0003 002f 1
E: 3589.274464 0003 003a 30
E: 3589.274466 0003 0030 290
E: 3589.274472 0003 0018 33
E: 3589.274474 0000 0000 0
E: 3589.282046 0003 002f 0
E: 3589.282048 0003 003a 35
E: 3589.282050 0003 0030 342
E: 3589.282054 0003 002f 1
E: 3589.282055 0003 0035 1540
E: 3589.282058 0003 003a 31
E: 3589.282065 0003 0018 35
E: 3589.282067 0000 0000 0
E: 3589.289372 0003 002f 0
E: 3589.289373 0003 003a 29
E: 3589.289380 0003 002f 1
E: 3589.289381 0003 003a 30
E: 3589.289383 0003 0030 258
E: 3589.289390 0003 0018 29
E: 3589.289392 0000 0000 0
E: 3589.300921 0003 002f 0
E: 3589.300923 0003 003a 35
E: 3589.300930 0003 002f 1
E: 3589.300931 0003 003a 32
E: 3589.300933 0003 0030 290
E: 3589.300940 0003 0018 35
E: 3589.300942 0000 0000 0
E: 3589.308540 0003 002f 0
E: 3589.308541 0003 003a 34
E: 3589.308547 0003 002f 1
E: 3589.308549 0003 0036 555
E: 3589.308551 0003 003a 30
E: 3589.308558 0003 0018 34
E: 3589.308560 0000 0000 0
E: 3589.316153 0003 002f 0
E: 3589.316154 0003 003a 37
E: 3589.316161 0003 002f 1
E: 3589.316162 0003 003a 33
E: 3589.316170 0003 0018 37
E: 3589.316172 0000 0000 0
E: 3589.323539 0003 002f 0
E: 3589.323540 0003 003a 35
E: 3589.323547 0003 002f 1
E: 3589.323548 0003 003a 30
E: 3589.323556 0003 0018 35
E: 3589.323558 0000 0000 0
E: 3589.331108 0003 002f 0
E: 3589.331109 0003 003a 36
E: 3589.331116 0003 002f 1
E: 3589.331117 0003 003a 32
E: 3589.331125 0003 0018 36
E: 3589.331127 0000 0000 0
E: 3589.338732 0003 002f 0
E: 3589.338734 0003 003a 35
E: 3589.338740 0003 002f 1
E: 3589.338741 0003 003a 31
E: 3589.338749 0003 0018 35
E: 3589.338751 0000 0000 0
E: 3589.346344 0003 002f 0
E: 3589.346346 0003 003a 36
E: 3589.346353 0003 002f 1
E: 3589.346354 0003 003a 32
E: 3589.346362 0003 0018 36
E: 3589.346364 0000 0000 0
E: 3589.351458 0003 002f 0
E: 3589.351459 0003 003a 29
E: 3589.351461 0003 0030 450
E: 3589.351468 0003 0018 29
E: 3589.351470 0000 0000 0
E: 3589.359268 0003 003a 35
E: 3589.359271 0003 0030 342
E: 3589.359276 0003 002f 1
E: 3589.359278 0003 003a 33
E: 3589.359286 0003 0018 35
E: 3589.359288 0000 0000 0
E: 3589.364429 0003 003a 36
E: 3589.364432 0003 0030 450
E: 3589.364440 0000 0000 0
E: 3589.376023 0003 003a 32
E: 3589.376027 0003 0030 290
E: 3589.376040 0000 0000 0
E: 3589.383843 0003 002f 0
E: 3589.383845 0003 003a 38
E: 3589.383847 0003 0030 366
E: 3589.383853 0003 002f 1
E: 3589.383854 0003 003a 33
E: 3589.383856 0003 0030 318
E: 3589.383863 0003 0018 38
E: 3589.383865 0000 0000 0
E: 3589.391384 0003 002f 0
E: 3589.391386 0003 003a 36
E: 3589.391388 0003 0030 342
E: 3589.391393 0003 002f 1
E: 3589.391395 0003 003a 32
E: 3589.391397 0003 0030 290
E: 3589.391404 0003 0018 36
E: 3589.391406 0000 0000 0
E: 3589.398998 0003 002f 0
E: 3589.399000 0003 0036 525
E: 3589.399007 0003 002f 1
E: 3589.399008 0003 003a 35
E: 3589.399010 0003 0030 318
E: 3589.399016 0003 0001 525
E: 3589.399019 0000 0000 0
E: 3589.406770 0003 002f 0
E: 3589.406772 0003 0036 524
E: 3589.406774 0003 003a 37
E: 3589.406781 0003 002f 1
E: 3589.406782 0003 0035 1541
E: 3589.406786 0003 003a 34
E: 3589.406798 0003 0001 524
E: 3589.406801 0003 0018 37
E: 3589.406804 0000 0000 0
E: 3589.414320 0003 002f 0
E: 3589.414323 0003 0035 1279
E: 3589.414325 0003 0036 525
E: 3589.414327 0003 003a 36
E: 3589.414333 0003 002f 1
E: 3589.414334 0003 0035 1540
E: 3589.414336 0003 003a 32
E: 3589.414338 0003 0030 290
E: 3589.414344 0003 0000 1279
E: 3589.414346 0003 0001 525
E: 3589.414348 0003 0018 36
E: 3589.414350 0000 0000 0
E: 3589.421859 0003 002f 0
E: 3589.421862 0003 003a 35
E: 3589.421867 0003 002f 1
E: 3589.421868 0003 0035 1541
E: 3589.421871 0003 003a 33
E: 3589.421879 0003 0018 35
E: 3589.421881 0000 0000 0
E: 3589.429467 0003 002f 0
E: 3589.429470 0003 003a 36
E: 3589.429483 0003 0018 36
E: 3589.429485 0000 0000 0
E: 3589.444386 0003 003a 37
E: 3589.444394 0003 002f 1
E: 3589.444395 0003 003a 32
E: 3589.444403 0003 0018 37
E: 3589.444404 0000 0000 0
E: 3589.455771 0003 002f 0
E: 3589.455772 0003 003a 36
E: 3589.455779 0003 002f 1
E: 3589.455780 0003 003a 26
E: 3589.455788 0003 0018 36
E: 3589.455790 0000 0000 0
E: 3589.463342 0003 003a 33
E: 3589.463351 0000 0000 0
E: 3589.470535 0003 0036 556
E: 3589.470537 0003 003a 32
E: 3589.470545 0000 0000 0
E: 3589.477911 0003 002f 0
E: 3589.477914 0003 003a 37
E: 3589.477923 0003 0018 37
E: 3589.477924 0000 0000 0
E: 3589.485570 0003 003a 34
E: 3589.485577 0003 002f 1
E: 3589.485578 0003 003a 31
E: 3589.485586 0003 0018 34
E: 3589.485588 0000 0000 0
E: 3589.493208 0003 003a 33
E: 3589.493217 0000 0000 0
E: 3589.500727 0003 002f 0
E: 3589.500729 0003 003a 37
E: 3589.500735 0003 002f 1
E: 3589.500736 0003 003a 34
E: 3589.500744 0003 0018 37
E: 3589.500746 0000 0000 0
E: 3589.508034 0003 002f 0
E: 3589.508036 0003 003a 36
E: 3589.508044 0003 0018 36
E: 3589.508046 0000 0000 0
E: 3589.515831 0003 003a 37
E: 3589.515838 0003 002f 1
E: 3589.515840 0003 003a 35
E: 3589.515842 0003 0030 318
E: 3589.515849 0003 0018 37
E: 3589.515851 0000 0000 0
E: 3589.523135 0003 003a 33
E: 3589.523143 0000 0000 0
E: 3589.534964 0003 002f 0
E: 3589.534966 0003 003a 35
E: 3589.534972 0003 002f 1
E: 3589.534974 0003 003a 32
E: 3589.534975 0003 0030 290
E: 3589.534982 0003 0018 35
E: 3589.534984 0000 0000 0
E: 3589.542405 0003 002f 0
E: 3589.542408 0003 003a 30
E: 3589.542414 0003 002f 1
E: 3589.542416 0003 003a 26
E: 3589.542423 0003 0018 30
E: 3589.542426 0000 0000 0
E: 3589.550038 0003 002f 0
E: 3589.550039 0003 003a 35
E: 3589.550046 0003 002f 1
E: 3589.550047 0003 003a 32
E: 3589.550055 0003 0018 35
E: 3589.550057 0000 0000 0
E: 3589.557475 0003 002f 0
E: 3589.557477 0003 0035 1278
E: 3589.557483 0003 002f 1
E: 3589.557485 0003 0035 1542
E: 3589.557487 0003 003a 26
E: 3589.557494 0003 0000 1278
E: 3589.557497 0000 0000 0
E: 3589.565102 0003 002f 0
E: 3589.565104 0003 003a 34
E: 3589.565110 0003 002f 1
E: 3589.565112 0003 003a 32
E: 3589.565119 0003 0018 34
E: 3589.565121 0000 0000 0
E: 3589.572657 0003 002f 0
E: 3589.572658 0003 0035 1279
E: 3589.572666 0003 002f 1
E: 3589.572667 0003 003a 31
E: 3589.572674 0003 0000 1279
E: 3589.572677 0000 0000 0
E: 3589.580180 0003 002f 0
E: 3589.580182 0003 003a 37
E: 3589.580188 0003 002f 1
E: 3589.580189 0003 003a 34
E: 3589.580197 0003 0018 37
E: 3589.580199 0000 0000 0
E: 3589.587771 0003 002f 0
E: 3589.587773 0003 003a 36
E: 3589.587779 0003 002f 1
E: 3589.587781 0003 003a 31
E: 3589.587788 0003 0018 36
E: 3589.587790 0000 0000 0
E: 3589.595417 0003 002f 0
E: 3589.595419 0003 003a 34
E: 3589.595425 0003 002f 1
E: 3589.595426 0003 003a 34
E: 3589.595434 0003 0018 34
E: 3589.595436 0000 0000 0
E: 3589.603315 0003 002f 0
E: 3589.603317 0003 003a 40
E: 3589.603319 0003 0030 388
E: 3589.603325 0003 002f 1
E: 3589.603326 0003 003a 33
E: 3589.603328 0003 0030 342
E: 3589.603335 0003 0018 40
E: 3589.603337 0000 0000 0
E: 3589.614901 0003 002f 0
E: 3589.614903 0003 003a 37
E: 3589.614905 0003 0030 342
E: 3589.614911 0003 002f 1
E: 3589.614913 0003 003a 34
E: 3589.614914 0003 0030 318
E: 3589.614922 0003 0018 37
E: 3589.614923 0000 0000 0
E: 3589.622144 0003 003a 27
E: 3589.622146 0003 0030 290
E: 3589.622154 0000 0000 0
E: 3589.629655 0003 002f 0
E: 3589.629657 0003 0036 526
E: 3589.629659 0003 003a 29
E: 3589.629661 0003 0030 318
E: 3589.629667 0003 002f 1
E: 3589.629668 0003 003a 33
E: 3589.629675 0003 0001 526
E: 3589.629677 0003 0018 29
E: 3589.629679 0000 0000 0
E: 3589.637287 0003 002f 0
E: 3589.637289 0003 003a 36
E: 3589.637291 0003 0030 342
E: 3589.637297 0003 002f 1
E: 3589.637298 0003 003a 34
E: 3589.637306 0003 0018 36
E: 3589.637307 0000 0000 0
E: 3589.644986 0003 0035 1543
E: 3589.644989 0003 003a 33
E: 3589.644998 0000 0000 0
E: 3589.652672 0003 002f 0
E: 3589.652673 0003 0035 1278
E: 3589.652676 0003 003a 31
E: 3589.652681 0003 002f 1
E: 3589.652682 0003 0035 1542
E: 3589.652685 0003 003a 32
E: 3589.652691 0003 0000 1278
E: 3589.652694 0003 0018 31
E: 3589.652696 0000 0000 0
E: 3589.657878 0003 002f 0
E: 3589.657880 0003 003a 34
E: 3589.657882 0003 0030 450
E: 3589.657889 0003 0018 34
E: 3589.657891 0000 0000 0
E: 3589.665462 0003 003a 36
E: 3589.665465 0003 0030 342
E: 3589.665470 0003 002f 1
E: 3589.665472 0003 003a 29
E: 3589.665474 0003 0030 258
E: 3589.665481 0003 0018 36
E: 3589.665483 0000 0000 0
E: 3589.673099 0003 002f 0
E: 3589.673101 0003 003a 34
E: 3589.673109 0003 002f 1
E: 3589.673111 0003 0030 290
E: 3589.673118 0003 0018 34
E: 3589.673120 0000 0000 0
E: 3589.680607 0003 002f 0
E: 3589.680609 0003 003a 37
E: 3589.680616 0003 002f 1
E: 3589.680617 0003 003a 33
E: 3589.680625 0003 0018 37
E: 3589.680626 0000 0000 0
E: 3589.692361 0003 002f 0
E: 3589.692363 0003 0035 1279
E: 3589.692366 0003 0030 388
E: 3589.692372 0003 002f 1
E: 3589.692374 0003 003a 35
E: 3589.692376 0003 0030 342
E: 3589.692381 0003 0000 1279
E: 3589.692384 0000 0000 0
E: 3589.697589 0003 002f 0
E: 3589.697590 0003 003a 29
E: 3589.697592 0003 0030 468
E: 3589.697599 0003 0018 29
E: 3589.697601 0000 0000 0
E: 3589.705277 0003 0035 1278
E: 3589.705280 0003 003a 30
E: 3589.705282 0003 0030 342
E: 3589.705288 0003 002f 1
E: 3589.705289 0003 003a 32
E: 3589.705291 0003 0030 290
E: 3589.705297 0003 0000 1278
E: 3589.705299 0003 0018 30
E: 3589.705301 0000 0000 0
E: 3589.712828 0003 002f 0
E: 3589.712830 0003 003a 35
E: 3589.712836 0003 002f 1
E: 3589.712838 0003 003a 33
E: 3589.712845 0003 0018 35
E: 3589.712847 0000 0000 0
E: 3589.720535 0003 002f 0
E: 3589.720537 0003 003a 34
E: 3589.720543 0003 002f 1
E: 3589.720545 0003 003a 34
E: 3589.720546 0003 0030 318
E: 3589.720554 0003 0018 34
E: 3589.720556 0000 0000 0
E: 3589.728118 0003 002f 0
E: 3589.728119 0003 0035 1279
E: 3589.728122 0003 003a 36
E: 3589.728129 0003 002f 1
E: 3589.728131 0003 0030 290
E: 3589.728136 0003 0000 1279
E: 3589.728139 0003 0018 36
E: 3589.728141 0000 0000 0
E: 3589.735517 0003 002f 0
E: 3589.735519 0003 003a 35
E: 3589.735533 0003 002f 1
E: 3589.735534 0003 003a 31
E: 3589.735541 0003 0018 35
E: 3589.735543 0000 0000 0
E: 3589.743141 0003 002f 0
E: 3589.743143 0003 0035 1278
E: 3589.743146 0003 003a 31
E: 3589.743152 0003 002f 1
E: 3589.743154 0003 003a 35
E: 3589.743156 0003 0030 318
E: 3589.743161 0003 0000 1278
E: 3589.743164 0003 0018 31
E: 3589.743166 0000 0000 0
E: 3589.750682 0003 002f 0
E: 3589.750683 0003 003a 37
E: 3589.750689 0003 002f 1
E: 3589.750690 0003 0035 1543
E: 3589.750692 0003 0036 557
E: 3589.750694 0003 003a 34
E: 3589.750696 0003 0030 290
E: 3589.750703 0003 0018 37
E: 3589.750704 0000 0000 0
E: 3589.757821 0003 0035 1542
E: 3589.757825 0003 003a 33
E: 3589.757833 0000 0000 0
E: 3589.769740 0003 002f 0
E: 3589.769742 0003 003a 33
E: 3589.769749 0003 002f 1
E: 3589.769750 0003 003a 31
E: 3589.769758 0003 0018 33
E: 3589.769760 0000 0000 0
E: 3589.777368 0003 002f 0
E: 3589.777371 0003 0035 1279
E: 3589.777373 0003 003a 35
E: 3589.777378 0003 002f 1
E: 3589.777379 0003 0035 1543
E: 3589.777382 0003 003a 27
E: 3589.777388 0003 0000 1279
E: 3589.777391 0003 0018 35
E: 3589.777393 0000 0000 0
E: 3589.784582 0003 002f 0
E: 3589.784585 0003 0035 1280
E: 3589.784587 0003 0036 527
E: 3589.784588 0003 003a 28
E: 3589.784590 0003 0030 258
E: 3589.784596 0003 002f 1
E: 3589.784597 0003 003a 33
E: 3589.784603 0003 0000 1280
E: 3589.784605 0003 0001 527
E: 3589.784607 0003 0018 28
E: 3589.784609 0000 0000 0
E: 3589.791341 0003 002f 0
E: 3589.791343 0003 0035 1281
E: 3589.791345 0003 0036 528
E: 3589.791347 0003 003a 20
E: 3589.791349 0003 0030 224
E: 3589.791355 0003 002f 1
E: 3589.791356 0003 003a 27
E: 3589.791363 0003 0000 1281
E: 3589.791365 0003 0001 528
E: 3589.791366 0003 0018 20
E: 3589.791368 0000 0000 0
E: 3589.795594 0003 003a 21
E: 3589.795596 0003 0030 182
E: 3589.795605 0000 0000 0
E: 3589.813232 0003 002f 0
E: 3589.813234 0003 0039 -1
E: 3589.813237 0001 0145 1
E: 3589.813239 0001 014d 0
E: 3589.813242 0003 0000 1543
E: 3589.813244 0003 0001 557
E: 3589.813246 0003 0018 21
E: 3589.813248 0000 0000 0
E: 3589.815693 0003 002f 1
E: 3589.815696 0003 0039 -1
E: 3589.815698 0001 014a 0
E: 3589.815700 0001 0145 0
E: 3589.815702 0003 0018 0
E: 3589.815704 0000 0000 0
E: 3589.816204 0003 002f 0
E: 3589.816204 0003 0039 -1
E: 3589.816204 0003 002f 1
E: 3589.816204 0003 0039 -1
E: 3589.816204 0003 002f 2
E: 3589.816204 0003 0039 -1
E: 3589.816204 0003 002f 3
E: 3589.816204 0003 0039 -1
E: 3589.816204 0003 002f 4
E: 3589.816204 0003 0039 -1
E: 3589.816204 0003 002f 5
E: 3589.816204 0003 0039 -1
E: 3589.816204 0003 002f 6
E: 3589.816204 0003 0039 -1
E: 3589.816204 0003 002f 7
E: 3589.816204 0003 0039 -1
E: 3589.816204 0003 002f 8
E: 3589.816204 0003 0039 -1
E: 3589.816204 0003 002f 9
E: 3589.816204 0003 0039 -1
