# device: Atmel maXTouch Touchpad
# bit: 0B 00 00 00 00 00 00 00
# key: 00 00 00 00 00 00 00 00 00 00 00 00 00 00 00 00 00 00 00 00 00 00 00 00 00 00 00 00 00 00 00 00 00 00 01 00 00 00 00 00 20 E5 00 00 00 00 00 00 00 00 00 00 00 00 00 00 00 00 00 00 00 00 00 00 00 00 00 00 00 00 00 00 00 00 00 00 00 00 00 00 00 00 00 00 00 00 00 00 00 00 00 00 00 00 00 00
# rel: 00 00 00 00 00 00 00 00
# abs: 03 00 00 01 00 80 61 06
# led: 00 00 00 00 00 00 00 00
# prp: 05 00 00 00 00 00 00 00
# absinfo: 0 0 2039 0 0 20
# absinfo: 1 0 1359 0 0 20
# absinfo: 24 0 255 0 0 0
# absinfo: 47 0 9 0 0 0
# absinfo: 48 0 1878 0 0 0
# absinfo: 53 0 2039 0 0 20
# absinfo: 54 0 1359 0 0 20
# absinfo: 57 0 65535 0 0 0
# absinfo: 58 0 255 0 0 0
E: 164.168553 0003 002f 0
E: 164.168553 0003 0030 388
E: 164.168553 0003 0031 0
E: 164.168553 0003 0032 0
E: 164.168553 0003 0033 0
E: 164.168553 0003 0034 0
E: 164.168553 0003 0035 1379
E: 164.168553 0003 0036 971
E: 164.168553 0003 0037 0
E: 164.168553 0003 0038 0
E: 164.168553 0003 0039 71
E: 164.168553 0003 003a 35
E: 164.168553 0003 003b 0
E: 164.168553 0003 002f 1
E: 164.168553 0003 0039 -1
E: 164.168553 0003 002f 2
E: 164.168553 0003 0039 -1
E: 164.168553 0003 002f 3
E: 164.168553 0003 0039 -1
E: 164.168553 0003 002f 4
E: 164.168553 0003 0039 -1
E: 164.168553 0003 002f 5
E: 164.168553 0003 0039 -1
E: 164.168553 0003 002f 6
E: 164.168553 0003 0039 -1
E: 164.168553 0003 002f 7
E: 164.168553 0003 0039 -1
E: 164.168553 0003 002f 8
E: 164.168553 0003 0039 -1
E: 164.168553 0003 002f 9
E: 164.168553 0003 0039 -1
E: 164.168553 0003 002f 0
E: 164.168553 0001 0145 1
E: 164.168553 0001 014a 1
E: 164.168553 0000 0000 0
E: 164.179476 0003 0035 1382
E: 164.179480 0003 0036 965
E: 164.179483 0003 003a 30
E: 164.179484 0003 0030 258
E: 164.179490 0003 0000 1382
E: 164.179492 0003 0001 965
E: 164.179494 0003 0018 30
E: 164.179496 0000 0000 0
E: 164.185844 0003 0035 1390
E: 164.185847 0003 0036 948
E: 164.185849 0003 003a 33
E: 164.185852 0003 0030 290
E: 164.185858 0003 0000 1390
E: 164.185860 0003 0001 948
E: 164.185862 0003 0018 33
E: 164.185864 0000 0000 0
E: 164.192130 0003 0035 1403
E: 164.192133 0003 0036 902
E: 164.192136 0003 0030 318
E: 164.192142 0003 0000 1403
E: 164.192144 0003 0001 902
E: 164.192146 0000 0000 0
E: 164.200649 0003 0035 1410
E: 164.200654 0003 0036 863
E: 164.200660 0003 002f 1
E: 164.200662 0003 0039 72
E: 164.200665 0003 0035 1160
E: 164.200668 0003 0036 1258
E: 164.200670 0003 003a 29
E: 164.200672 0003 0030 290
E: 164.200676 0001 0145 0
E: 164.200678 0001 014d 1
E: 164.200683 0003 0000 1410
E: 164.200685 0003 0001 863
E: 164.200689 0000 0000 0
E: 164.209237 0003 002f 0
E: 164.209241 0003 0035 1411
E: 164.209254 0003 0036 836
E: 164.209257 0003 003a 34
E: 164.209263 0003 002f 1
E: 164.209265 0003 0036 1256
E: 164.209267 0003 003a 31
E: 164.209282 0003 0000 1411
E: 164.209284 0003 0001 836
E: 164.209287 0003 0018 34
E: 164.209289 0000 0000 0
E: 164.217284 0003 002f 0
E: 164.217286 0003 0035 1412
E: 164.217289 0003 0036 803
E: 164.217290 0003 003a 35
E: 164.217292 0003 0030 342
E: 164.217298 0003 002f 1
E: 164.217299 0003 0035 1159
E: 164.217300 0003 0036 1253
E: 164.217304 0003 0030 318
E: 164.217312 0003 0000 1412
E: 164.217314 0003 0001 803
E: 164.217316 0003 0018 35
E: 164.217318 0000 0000 0
E: 164.228432 0003 002f 0
E: 164.228434 0003 0035 1407
E: 164.228436 0003 0036 774
E: 164.228438 0003 003a 33
E: 164.228440 0003 0030 258
E: 164.228445 0003 002f 1
E: 164.228446 0003 0035 1154
E: 164.228448 0003 0036 1234
E: 164.228456 0003 0000 1407
E: 164.228458 0003 0001 774
E: 164.228460 0003 0018 33
E: 164.228462 0000 0000 0
E: 164.234793 0003 002f 0
E: 164.234795 0003 0035 1405
E: 164.234797 0003 0036 752
E: 164.234800 0003 003a 35
E: 164.234802 0003 0030 290
E: 164.234807 0003 002f 1
E: 164.234808 0003 0035 1146
E: 164.234810 0003 0036 1206
E: 164.234812 0003 003a 30
E: 164.234819 0003 0000 1405
E: 164.234821 0003 0001 752
E: 164.234823 0003 0018 35
E: 164.234825 0000 0000 0
E: 164.243249 0003 002f 0
E: 164.243253 0003 0036 736
E: 164.243256 0003 003a 34
E: 164.243258 0003 0030 318
E: 164.243266 0003 002f 1
E: 164.243267 0003 0035 1133
E: 164.243270 0003 0036 1158
E: 164.243273 0003 003a 31
E: 164.243285 0003 0001 736
E: 164.243287 0003 0018 34
E: 164.243289 0000 0000 0
E: 164.251573 0003 002f 0
E: 164.251575 0003 0035 1401
E: 164.251577 0003 0036 714
E: 164.251579 0003 003a 37
E: 164.251586 0003 002f 1
E: 164.251587 0003 0035 1127
E: 164.251589 0003 0036 1124
E: 164.251591 0003 003a 33
E: 164.251593 0003 0030 290
E: 164.251600 0003 0000 1401
E: 164.251602 0003 0001 714
E: 164.251604 0003 0018 37
E: 164.251606 0000 0000 0
E: 164.259996 0003 002f 0
E: 164.259998 0003 0035 1399
E: 164.260001 0003 0036 688
E: 164.260036 0003 002f 1
E: 164.260038 0003 0035 1123
E: 164.260040 0003 0036 1098
E: 164.260044 0003 0030 318
E: 164.260050 0003 0000 1399
E: 164.260052 0003 0001 688
E: 164.260055 0000 0000 0
E: 164.271295 0003 002f 0
E: 164.271297 0003 0035 1392
E: 164.271300 0003 0036 642
E: 164.271303 0003 003a 35
E: 164.271309 0003 002f 1
E: 164.271310 0003 0035 1115
E: 164.271312 0003 0036 1059
E: 164.271314 0003 003a 32
E: 164.271316 0003 0030 290
E: 164.271323 0003 0000 1392
E: 164.271325 0003 0001 642
E: 164.271327 0003 0018 35
E: 164.271329 0000 0000 0
E: 164.277624 0003 002f 0
E: 164.277627 0003 0035 1390
E: 164.277630 0003 0036 611
E: 164.277632 0003 0030 290
E: 164.277638 0003 002f 1
E: 164.277639 0003 0035 1107
E: 164.277641 0003 0036 1030
E: 164.277650 0003 0000 1390
E: 164.277652 0003 0001 611
E: 164.277655 0000 0000 0
E: 164.286248 0003 002f 0
E: 164.286251 0003 0035 1383
E: 164.286254 0003 0036 583
E: 164.286256 0003 003a 37
E: 164.286258 0003 0030 342
E: 164.286263 0003 002f 1
E: 164.286264 0003 0035 1103
E: 164.286267 0003 0036 1003
E: 164.286268 0003 003a 33
E: 164.286270 0003 0030 318
E: 164.286277 0003 0000 1383
E: 164.286279 0003 0001 583
E: 164.286281 0003 0018 37
E: 164.286283 0000 0000 0
E: 164.294721 0003 002f 0
E: 164.294724 0003 0035 1380
E: 164.294727 0003 0036 545
E: 164.294729 0003 003a 34
E: 164.294731 0003 0030 318
E: 164.294735 0003 002f 1
E: 164.294736 0003 0035 1098
E: 164.294738 0003 0036 971
E: 164.294740 0003 003a 34
E: 164.294742 0003 0030 290
E: 164.294749 0003 0000 1380
E: 164.294751 0003 0001 545
E: 164.294753 0003 0018 34
E: 164.294755 0000 0000 0
E: 164.306087 0003 002f 0
E: 164.306090 0003 0035 1379
E: 164.306093 0003 0036 504
E: 164.306103 0003 002f 1
E: 164.306105 0003 0035 1090
E: 164.306107 0003 0036 911
E: 164.306110 0003 003a 31
E: 164.306121 0003 0000 1379
E: 164.306123 0003 0001 504
E: 164.306127 0000 0000 0
E: 164.314600 0003 002f 0
E: 164.314603 0003 0035 1370
E: 164.314605 0003 0036 451
E: 164.314607 0003 003a 36
E: 164.314613 0003 002f 1
E: 164.314614 0003 0035 1082
E: 164.314616 0003 0036 885
E: 164.314618 0003 003a 32
E: 164.314626 0003 0000 1370
E: 164.314628 0003 0001 451
E: 164.314629 0003 0018 36
E: 164.314631 0000 0000 0
E: 164.323161 0003 002f 0
E: 164.323163 0003 0035 1366
E: 164.323166 0003 0036 421
E: 164.323168 0003 003a 34
E: 164.323170 0003 0030 290
E: 164.323176 0003 002f 1
E: 164.323177 0003 0035 1077
E: 164.323179 0003 0036 849
E: 164.323182 0003 003a 34
E: 164.323184 0003 0030 318
E: 164.323192 0003 0000 1366
E: 164.323194 0003 0001 421
E: 164.323196 0003 0018 34
E: 164.323198 0000 0000 0
E: 164.332032 0003 002f 0
E: 164.332036 0003 0035 1361
E: 164.332039 0003 0036 383
E: 164.332043 0003 0030 366
E: 164.332049 0003 002f 1
E: 164.332051 0003 0035 1067
E: 164.332054 0003 0036 797
E: 164.332057 0003 0030 258
E: 164.332068 0003 0000 1361
E: 164.332071 0003 0001 383
E: 164.332075 0000 0000 0
E: 164.344669 0003 002f 0
E: 164.344672 0003 0035 1359
E: 164.344674 0003 0036 320
E: 164.344676 0003 003a 37
E: 164.344678 0003 0030 290
E: 164.344684 0003 002f 1
E: 164.344685 0003 0035 1053
E: 164.344688 0003 0036 741
E: 164.344689 0003 003a 37
E: 164.344692 0003 0030 318
E: 164.344699 0003 0000 1359
E: 164.344701 0003 0001 320
E: 164.344703 0003 0018 37
E: 164.344705 0000 0000 0
E: 164.353618 0003 002f 0
E: 164.353622 0003 0035 1353
E: 164.353625 0003 0036 276
E: 164.353628 0003 0030 318
E: 164.353634 0003 002f 1
E: 164.353635 0003 0035 1042
E: 164.353637 0003 0036 703
E: 164.353640 0003 003a 35
E: 164.353650 0003 0000 1353
E: 164.353653 0003 0001 276
E: 164.353657 0000 0000 0
E: 164.362365 0003 002f 0
E: 164.362368 0003 0035 1344
E: 164.362370 0003 0036 227
E: 164.362372 0003 003a 31
E: 164.362375 0003 0030 290
E: 164.362381 0003 002f 1
E: 164.362383 0003 0036 669
E: 164.362385 0003 003a 36
E: 164.362387 0003 0030 342
E: 164.362395 0003 0000 1344
E: 164.362397 0003 0001 227
E: 164.362400 0003 0018 31
E: 164.362402 0000 0000 0
E: 164.371447 0003 002f 0
E: 164.371450 0003 0035 1342
E: 164.371453 0003 0036 197
E: 164.371455 0003 003a 38
E: 164.371458 0003 0030 318
E: 164.371464 0003 002f 1
E: 164.371466 0003 0035 1037
E: 164.371469 0003 0036 631
E: 164.371471 0003 003a 34
E: 164.371473 0003 0030 318
E: 164.371482 0003 0000 1342
E: 164.371485 0003 0001 197
E: 164.371488 0003 0018 38
E: 164.371491 0000 0000 0
E: 164.380166 0003 002f 0
E: 164.380169 0003 0035 1335
E: 164.380171 0003 0036 160
E: 164.380173 0003 003a 35
E: 164.380180 0003 002f 1
E: 164.380181 0003 0035 1026
E: 164.380183 0003 0036 578
E: 164.380185 0003 003a 36
E: 164.380186 0003 0030 290
E: 164.380193 0003 0000 1335
E: 164.380195 0003 0001 160
E: 164.380198 0003 0018 35
E: 164.380200 0000 0000 0
E: 164.388890 0003 002f 0
E: 164.388893 0003 0035 1333
E: 164.388896 0003 0036 125
E: 164.388901 0003 0030 290
E: 164.388908 0003 002f 1
E: 164.388911 0003 0035 1020
E: 164.388914 0003 0036 536
E: 164.388917 0003 0030 318
E: 164.388928 0003 0000 1333
E: 164.388931 0003 0001 125
E: 164.388936 0000 0000 0
E: 164.401684 0003 002f 0
E: 164.401687 0003 0035 1326
E: 164.401690 0003 0036 92
E: 164.401692 0003 003a 28
E: 164.401694 0003 0030 258
E: 164.401698 0003 002f 1
E: 164.401700 0003 0035 1014
E: 164.401702 0003 0036 483
E: 164.401704 0003 003a 35
E: 164.401706 0003 0030 342
E: 164.401713 0003 0000 1326
E: 164.401715 0003 0001 92
E: 164.401717 0003 0018 28
E: 164.401719 0000 0000 0
E: 164.410622 0003 002f 0
E: 164.410625 0003 0035 1323
E: 164.410627 0003 0036 75
E: 164.410629 0003 003a 24
E: 164.410635 0003 002f 1
E: 164.410636 0003 0035 1009
E: 164.410638 0003 0036 452
E: 164.410640 0003 003a 37
E: 164.410642 0003 0030 318
E: 164.410648 0003 0000 1323
E: 164.410650 0003 0001 75
E: 164.410652 0003 0018 24
E: 164.410654 0000 0000 0
E: 164.419501 0003 002f 0
E: 164.419504 0003 0035 1322
E: 164.419507 0003 0036 64
E: 164.419509 0003 003a 20
E: 164.419511 0003 0030 224
E: 164.419516 0003 002f 1
E: 164.419517 0003 0035 1005
E: 164.419519 0003 0036 416
E: 164.419527 0003 0000 1322
E: 164.419529 0003 0001 64
E: 164.419531 0003 0018 20
E: 164.419533 0000 0000 0
E: 164.430867 0003 002f 0
E: 164.430871 0003 0035 1316
E: 164.430873 0003 0036 54
E: 164.430876 0003 003a 14
E: 164.430880 0003 0030 182
E: 164.430886 0003 002f 1
E: 164.430888 0003 0035 995
E: 164.430890 0003 0036 370
E: 164.430892 0003 003a 35
E: 164.430894 0003 0030 258
E: 164.430901 0003 0000 1316
E: 164.430904 0003 0001 54
E: 164.430906 0003 0018 14
E: 164.430918 0000 0000 0
E: 164.437695 0003 002f 0
E: 164.437697 0003 0035 1315
E: 164.437699 0003 0036 49
E: 164.437701 0003 003a 12
E: 164.437707 0003 002f 1
E: 164.437708 0003 0035 993
E: 164.437711 0003 0036 358
E: 164.437713 0003 003a 31
E: 164.437722 0003 0000 1315
E: 164.437726 0003 0001 49
E: 164.437728 0003 0018 12
E: 164.437731 0000 0000 0
E: 164.445344 0003 002f 0
E: 164.445346 0003 0035 1308
E: 164.445349 0003 0036 44
E: 164.445352 0003 003a 11
E: 164.445364 0003 002f 1
E: 164.445366 0003 0035 992
E: 164.445368 0003 0036 347
E: 164.445370 0003 003a 35
E: 164.445372 0003 0030 290
E: 164.445380 0003 0000 1308
E: 164.445382 0003 0001 44
E: 164.445384 0003 0018 11
E: 164.445386 0000 0000 0
E: 164.452071 0003 002f 0
E: 164.452074 0003 0035 1309
E: 164.452076 0003 0036 42
E: 164.452078 0003 003a 12
E: 164.452084 0003 002f 1
E: 164.452086 0003 0035 991
E: 164.452088 0003 0036 336
E: 164.452090 0003 003a 31
E: 164.452098 0003 0000 1309
E: 164.452101 0003 0001 42
E: 164.452103 0003 0018 12
E: 164.452105 0000 0000 0
E: 164.458830 0003 002f 0
E: 164.458833 0003 0035 1305
E: 164.458837 0003 0036 39
E: 164.458839 0003 003a 9
E: 164.458846 0003 002f 1
E: 164.458848 0003 0035 993
E: 164.458850 0003 0036 325
E: 164.458853 0003 003a 25
E: 164.458855 0003 0030 258
E: 164.458864 0003 0000 1305
E: 164.458867 0003 0001 39
E: 164.458870 0003 0018 9
E: 164.458871 0000 0000 0
E: 164.465546 0003 002f 0
E: 164.465548 0003 0035 1304
E: 164.465551 0003 0036 38
E: 164.465553 0003 003a 8
E: 164.465554 0003 0030 128
E: 164.465559 0003 002f 1
E: 164.465561 0003 0035 992
E: 164.465562 0003 0036 312
E: 164.465564 0003 003a 17
E: 164.465566 0003 0030 182
E: 164.465572 0003 0000 1304
E: 164.465574 0003 0001 38
E: 164.465576 0003 0018 8
E: 164.465578 0000 0000 0
E: 164.471286 0003 002f 0
E: 164.471289 0003 0035 1303
E: 164.471291 0003 0036 37
E: 164.471293 0003 003a 9
E: 164.471295 0003 0030 182
E: 164.471302 0003 0000 1303
E: 164.471304 0003 0001 37
E: 164.471306 0003 0018 9
E: 164.471308 0000 0000 0
E: 164.476760 0003 0035 1302
E: 164.476764 0003 0036 36
E: 164.476767 0003 003a 8
E: 164.476770 0003 0030 128
E: 164.476780 0003 0000 1302
E: 164.476783 0003 0001 36
E: 164.476786 0003 0018 8
E: 164.476788 0000 0000 0
E: 164.488109 0003 002f 1
E: 164.488111 0003 0039 -1
E: 164.488115 0001 0145 1
E: 164.488117 0001 014d 0
E: 164.488123 0000 0000 0
E: 164.495658 0003 002f 0
E: 164.495661 0003 0039 -1
E: 164.495665 0001 014a 0
E: 164.495666 0001 0145 0
E: 164.495669 0003 0018 0
E: 164.495671 0000 0000 0
E: 164.496171 0003 002f 0
E: 164.496171 0003 0039 -1
E: 164.496171 0003 002f 1
E: 164.496171 0003 0039 -1
E: 164.496171 0003 002f 2
E: 164.496171 0003 0039 -1
E: 164.496171 0003 002f 3
E: 164.496171 0003 0039 -1
E: 164.496171 0003 002f 4
E: 164.496171 0003 0039 -1
E: 164.496171 0003 002f 5
E: 164.496171 0003 0039 -1
E: 164.496171 0003 002f 6
E: 164.496171 0003 0039 -1
E: 164.496171 0003 002f 7
E: 164.496171 0003 0039 -1
E: 164.496171 0003 002f 8
E: 164.496171 0003 0039 -1
E: 164.496171 0003 002f 9
E: 164.496171 0003 0039 -1
