# device: Cypress APA Trackpad (cyapa)
# bit: 0B 00 00 00 00 00 00 00
# key: 00 00 00 00 00 00 00 00 00 00 00 00 00 00 00 00 00 00 00 00 00 00 00 00 00 00 00 00 00 00 00 00 00 00 01 00 00 00 00 00 20 E5 00 00 00 00 00 00 00 00 00 00 00 00 00 00 00 00 00 00 00 00 00 00 00 00 00 00 00 00 00 00 00 00 00 00 00 00 00 00 00 00 00 00 00 00 00 00 00 00 00 00 00 00 00 00
# rel: 00 00 00 00 00 00 00 00
# abs: 03 00 00 01 00 80 60 06
# led: 00 00 00 00 00 00 00 00
# prp: 05 00 00 00 00 00 00 00
# absinfo: 0 0 990 0 0 10
# absinfo: 1 0 650 0 0 10
# absinfo: 24 0 255 0 0 0
# absinfo: 47 0 14 0 0 0
# absinfo: 53 0 990 0 0 10
# absinfo: 54 0 650 0 0 10
# absinfo: 57 0 65535 0 0 0
# absinfo: 58 0 255 0 0 0
E: 1098.064339 0003 002f 0
E: 1098.064339 0003 0030 0
E: 1098.064339 0003 0031 0
E: 1098.064339 0003 0032 0
E: 1098.064339 0003 0033 0
E: 1098.064339 0003 0034 0
E: 1098.064339 0003 0035 337
E: 1098.064339 0003 0036 575
E: 1098.064339 0003 0037 0
E: 1098.064339 0003 0038 0
E: 1098.064339 0003 0039 67
E: 1098.064339 0003 003a 22
E: 1098.064339 0003 003b 0
E: 1098.064339 0003 002f 1
E: 1098.064339 0003 0030 0
E: 1098.064339 0003 0031 0
E: 1098.064339 0003 0032 0
E: 1098.064339 0003 0033 0
E: 1098.064339 0003 0034 0
E: 1098.064339 0003 0035 525
E: 1098.064339 0003 0036 573
E: 1098.064339 0003 0037 0
E: 1098.064339 0003 0038 0
E: 1098.064339 0003 0039 68
E: 1098.064339 0003 003a 29
E: 1098.064339 0003 003b 0
E: 1098.064339 0003 002f 2
E: 1098.064339 0003 0039 -1
E: 1098.064339 0003 002f 3
E: 1098.064339 0003 0039 -1
E: 1098.064339 0003 002f 4
E: 1098.064339 0003 0039 -1
E: 1098.064339 0003 002f 5
E: 1098.064339 0003 0039 -1
E: 1098.064339 0003 002f 6
E: 1098.064339 0003 0039 -1
E: 1098.064339 0003 002f 7
E: 1098.064339 0003 0039 -1
E: 1098.064339 0003 002f 8
E: 1098.064339 0003 0039 -1
E: 1098.064339 0003 002f 9
E: 1098.064339 0003 0039 -1
E: 1098.064339 0003 002f 10
E: 1098.064339 0003 0039 -1
E: 1098.064339 0003 002f 11
E: 1098.064339 0003 0039 -1
E: 1098.064339 0003 002f 12
E: 1098.064339 0003 0039 -1
E: 1098.064339 0003 002f 13
E: 1098.064339 0003 0039 -1
E: 1098.064339 0003 002f 14
E: 1098.064339 0003 0039 -1
E: 1098.064339 0003 002f 1
E: 1098.064339 0001 014a 1
E: 1098.064339 0001 014d 1
E: 1098.064339 0000 0000 0
E: 1098.078029 0003 002f 0
E: 1098.078029 0003 0035 341
E: 1098.078029 0003 003a 35
E: 1098.078029 0003 002f 1
E: 1098.078029 0003 0036 576
E: 1098.078029 0003 003a 35
E: 1098.078029 0003 0000 341
E: 1098.078029 0003 0018 35
E: 1098.078029 0000 0000 0
E: 1098.091648 0003 002f 0
E: 1098.091648 0003 0036 574
E: 1098.091648 0003 003a 38
E: 1098.091648 0003 002f 1
E: 1098.091648 0003 0035 520
E: 1098.091648 0003 0036 575
E: 1098.091648 0003 003a 43
E: 1098.091648 0003 0001 574
E: 1098.091648 0003 0018 38
E: 1098.091648 0000 0000 0
E: 1098.105283 0003 002f 0
E: 1098.105283 0003 0035 338
E: 1098.105283 0003 0036 571
E: 1098.105283 0003 003a 42
E: 1098.105283 0003 002f 1
E: 1098.105283 0003 0035 519
E: 1098.105283 0003 0036 572
E: 1098.105283 0003 003a 45
E: 1098.105283 0003 0000 338
E: 1098.105283 0003 0001 571
E: 1098.105283 0003 0018 42
E: 1098.105283 0000 0000 0
E: 1098.118944 0003 002f 0
E: 1098.118944 0003 0035 341
E: 1098.118944 0003 0036 570
E: 1098.118944 0003 003a 46
E: 1098.118944 0003 002f 1
E: 1098.118944 0003 0035 518
E: 1098.118944 0003 0036 571
E: 1098.118944 0003 003a 46
E: 1098.118944 0003 0000 341
E: 1098.118944 0003 0001 570
E: 1098.118944 0003 0018 46
E: 1098.118944 0000 0000 0
E: 1098.132523 0003 002f 0
E: 1098.132523 0003 0036 566
E: 1098.132523 0003 003a 50
E: 1098.132523 0003 002f 1
E: 1098.132523 0003 0035 517
E: 1098.132523 0003 0036 567
E: 1098.132523 0003 003a 48
E: 1098.132523 0003 0001 566
E: 1098.132523 0003 0018 50
E: 1098.132523 0000 0000 0
E: 1098.146438 0003 002f 0
E: 1098.146438 0003 0036 565
E: 1098.146438 0003 003a 52
E: 1098.146438 0003 002f 1
E: 1098.146438 0003 0035 520
E: 1098.146438 0003 0036 564
E: 1098.146438 0003 003a 52
E: 1098.146438 0003 0001 565
E: 1098.146438 0003 0018 52
E: 1098.146438 0000 0000 0
E: 1098.160380 0003 002f 0
E: 1098.160380 0003 0035 342
E: 1098.160380 0003 0036 564
E: 1098.160380 0003 003a 55
E: 1098.160380 0003 002f 1
E: 1098.160380 0003 0036 561
E: 1098.160380 0003 003a 54
E: 1098.160380 0003 0000 342
E: 1098.160380 0003 0001 564
E: 1098.160380 0003 0018 55
E: 1098.160380 0000 0000 0
E: 1098.174314 0003 002f 0
E: 1098.174314 0003 0036 563
E: 1098.174314 0003 003a 56
E: 1098.174314 0003 002f 1
E: 1098.174314 0003 0035 519
E: 1098.174314 0003 0036 560
E: 1098.174314 0003 0001 563
E: 1098.174314 0003 0018 56
E: 1098.174314 0000 0000 0
E: 1098.188319 0003 002f 0
E: 1098.188319 0003 0036 564
E: 1098.188319 0003 003a 59
E: 1098.188319 0003 002f 1
E: 1098.188319 0003 0035 520
E: 1098.188319 0003 0036 558
E: 1098.188319 0003 003a 55
E: 1098.188319 0003 0001 564
E: 1098.188319 0003 0018 59
E: 1098.188319 0000 0000 0
E: 1098.202294 0003 002f 0
E: 1098.202294 0003 0036 562
E: 1098.202294 0003 003a 63
E: 1098.202294 0003 002f 1
E: 1098.202294 0003 0036 556
E: 1098.202294 0003 003a 58
E: 1098.202294 0003 0001 562
E: 1098.202294 0003 0018 63
E: 1098.202294 0000 0000 0
E: 1098.216310 0003 002f 0
E: 1098.216310 0003 0036 561
E: 1098.216310 0003 002f 1
E: 1098.216310 0003 0035 519
E: 1098.216310 0003 0036 554
E: 1098.216310 0003 003a 59
E: 1098.216310 0003 0001 561
E: 1098.216310 0000 0000 0
E: 1098.230247 0003 002f 0
E: 1098.230247 0003 0035 341
E: 1098.230247 0003 002f 1
E: 1098.230247 0003 0036 553
E: 1098.230247 0003 003a 60
E: 1098.230247 0003 0000 341
E: 1098.230247 0000 0000 0
E: 1098.258337 0003 0036 552
E: 1098.258337 0003 003a 61
E: 1098.258337 0000 0000 0
E: 1098.272383 0003 0036 553
E: 1098.272383 0003 003a 62
E: 1098.272383 0000 0000 0
E: 1098.286495 0003 002f 0
E: 1098.286495 0003 0036 562
E: 1098.286495 0003 0001 562
E: 1098.286495 0000 0000 0
E: 1098.300467 0003 0035 340
E: 1098.300467 0003 0036 563
E: 1098.300467 0003 002f 1
E: 1098.300467 0003 0036 554
E: 1098.300467 0003 0000 340
E: 1098.300467 0003 0001 563
E: 1098.300467 0000 0000 0
E: 1098.314564 0003 0035 517
E: 1098.314564 0003 0036 553
E: 1098.314564 0003 003a 63
E: 1098.314564 0000 0000 0
E: 1098.329301 0003 002f 0
E: 1098.329301 0003 0035 342
E: 1098.329301 0003 0036 586
E: 1098.329301 0003 003a 51
E: 1098.329301 0003 002f 1
E: 1098.329301 0003 0035 516
E: 1098.329301 0003 0036 552
E: 1098.329301 0003 003a 62
E: 1098.329301 0003 0000 342
E: 1098.329301 0003 0001 586
E: 1098.329301 0003 0018 51
E: 1098.329301 0000 0000 0
E: 1098.343944 0003 0035 514
E: 1098.343944 0003 0036 551
E: 1098.343944 0003 003a 63
E: 1098.343944 0000 0000 0
E: 1098.358727 0003 002f 0
E: 1098.358727 0003 0035 341
E: 1098.358727 0003 002f 1
E: 1098.358727 0003 0036 549
E: 1098.358727 0003 0000 341
E: 1098.358727 0000 0000 0
E: 1098.373380 0003 002f 0
E: 1098.373380 0003 0036 585
E: 1098.373380 0003 002f 1
E: 1098.373380 0003 0035 513
E: 1098.373380 0003 0036 547
E: 1098.373380 0003 0001 585
E: 1098.373380 0000 0000 0
E: 1098.388166 0003 002f 0
E: 1098.388166 0003 0035 340
E: 1098.388166 0003 003a 52
E: 1098.388166 0003 002f 1
E: 1098.388166 0003 0036 546
E: 1098.388166 0003 0000 340
E: 1098.388166 0003 0018 52
E: 1098.388166 0000 0000 0
E: 1098.402412 0003 002f 0
E: 1098.402412 0003 0035 336
E: 1098.402412 0003 0036 557
E: 1098.402412 0003 003a 63
E: 1098.402412 0003 002f 1
E: 1098.402412 0003 0035 511
E: 1098.402412 0003 0036 544
E: 1098.402412 0003 0000 336
E: 1098.402412 0003 0001 557
E: 1098.402412 0003 0018 63
E: 1098.402412 0000 0000 0
E: 1098.416139 0003 002f 0
E: 1098.416139 0003 0035 335
E: 1098.416139 0003 0036 555
E: 1098.416139 0003 002f 1
E: 1098.416139 0003 0035 508
E: 1098.416139 0003 0036 532
E: 1098.416139 0003 003a 58
E: 1098.416139 0003 0000 335
E: 1098.416139 0003 0001 555
E: 1098.416139 0000 0000 0
E: 1098.432493 0003 002f 0
E: 1098.432493 0003 0035 334
E: 1098.432493 0003 0036 553
E: 1098.432493 0003 003a 81
E: 1098.432493 0003 002f 1
E: 1098.432493 0003 0035 507
E: 1098.432493 0003 0036 529
E: 1098.432493 0003 003a 60
E: 1098.432493 0003 0000 334
E: 1098.432493 0003 0001 553
E: 1098.432493 0003 0018 81
E: 1098.432493 0000 0000 0
E: 1098.448651 0003 002f 0
E: 1098.448651 0003 0035 333
E: 1098.448651 0003 0036 552
E: 1098.448651 0003 003a 80
E: 1098.448651 0003 002f 1
E: 1098.448651 0003 0036 526
E: 1098.448651 0003 0000 333
E: 1098.448651 0003 0001 552
E: 1098.448651 0003 0018 80
E: 1098.448651 0000 0000 0
E: 1098.462117 0003 002f 0
E: 1098.462117 0003 0035 329
E: 1098.462117 0003 0036 525
E: 1098.462117 0003 003a 63
E: 1098.462117 0003 002f 1
E: 1098.462117 0003 0036 524
E: 1098.462117 0003 003a 63
E: 1098.462117 0003 0000 329
E: 1098.462117 0003 0001 525
E: 1098.462117 0003 0018 63
E: 1098.462117 0000 0000 0
E: 1098.475543 0003 002f 0
E: 1098.475543 0003 0035 328
E: 1098.475543 0003 0036 523
E: 1098.475543 0003 002f 1
E: 1098.475543 0003 0036 521
E: 1098.475543 0003 0000 328
E: 1098.475543 0003 0001 523
E: 1098.475543 0000 0000 0
E: 1098.489038 0003 002f 0
E: 1098.489038 0003 0036 522
E: 1098.489038 0003 002f 1
E: 1098.489038 0003 0035 506
E: 1098.489038 0003 0036 520
E: 1098.489038 0003 0001 522
E: 1098.489038 0000 0000 0
E: 1098.502871 0003 002f 0
E: 1098.502871 0003 0035 333
E: 1098.502871 0003 0036 550
E: 1098.502871 0003 002f 1
E: 1098.502871 0003 0036 517
E: 1098.502871 0003 0000 333
E: 1098.502871 0003 0001 550
E: 1098.502871 0000 0000 0
E: 1098.516714 0003 002f 0
E: 1098.516714 0003 0036 549
E: 1098.516714 0003 002f 1
E: 1098.516714 0003 0036 515
E: 1098.516714 0003 0001 549
E: 1098.516714 0000 0000 0
E: 1098.530636 0003 002f 0
E: 1098.530636 0003 0036 548
E: 1098.530636 0003 002f 1
E: 1098.530636 0003 0036 513
E: 1098.530636 0003 0001 548
E: 1098.530636 0000 0000 0
E: 1098.544632 0003 002f 0
E: 1098.544632 0003 0035 332
E: 1098.544632 0003 0036 547
E: 1098.544632 0003 002f 1
E: 1098.544632 0003 0036 512
E: 1098.544632 0003 0000 332
E: 1098.544632 0003 0001 547
E: 1098.544632 0000 0000 0
E: 1098.558584 0003 002f 0
E: 1098.558584 0003 0036 545
E: 1098.558584 0003 002f 1
E: 1098.558584 0003 0036 509
E: 1098.558584 0003 0001 545
E: 1098.558584 0000 0000 0
E: 1098.572941 0003 002f 0
E: 1098.572941 0003 0036 544
E: 1098.572941 0003 002f 1
E: 1098.572941 0003 0036 507
E: 1098.572941 0003 0001 544
E: 1098.572941 0000 0000 0
E: 1098.586778 0003 002f 0
E: 1098.586778 0003 0036 543
E: 1098.586778 0003 002f 1
E: 1098.586778 0003 0035 505
E: 1098.586778 0003 0036 505
E: 1098.586778 0003 0001 543
E: 1098.586778 0000 0000 0
E: 1098.600864 0003 002f 0
E: 1098.600864 0003 0036 542
E: 1098.600864 0003 002f 1
E: 1098.600864 0003 0036 504
E: 1098.600864 0003 0001 542
E: 1098.600864 0000 0000 0
E: 1098.615088 0003 002f 0
E: 1098.615088 0003 0035 331
E: 1098.615088 0003 0036 540
E: 1098.615088 0003 002f 1
E: 1098.615088 0003 0035 504
E: 1098.615088 0003 0036 501
E: 1098.615088 0003 0000 331
E: 1098.615088 0003 0001 540
E: 1098.615088 0000 0000 0
E: 1098.629654 0003 002f 0
E: 1098.629654 0003 0035 330
E: 1098.629654 0003 0036 539
E: 1098.629654 0003 002f 1
E: 1098.629654 0003 0035 505
E: 1098.629654 0003 0036 500
E: 1098.629654 0003 0000 330
E: 1098.629654 0003 0001 539
E: 1098.629654 0000 0000 0
E: 1098.643290 0003 002f 0
E: 1098.643290 0003 0036 538
E: 1098.643290 0003 002f 1
E: 1098.643290 0003 0035 504
E: 1098.643290 0003 0036 497
E: 1098.643290 0003 0001 538
E: 1098.643290 0000 0000 0
E: 1098.657351 0003 002f 0
E: 1098.657351 0003 0036 536
E: 1098.657351 0003 003a 61
E: 1098.657351 0003 002f 1
E: 1098.657351 0003 0036 496
E: 1098.657351 0003 0001 536
E: 1098.657351 0003 0018 61
E: 1098.657351 0000 0000 0
E: 1098.671351 0003 002f 0
E: 1098.671351 0003 0035 329
E: 1098.671351 0003 002f 1
E: 1098.671351 0003 0036 495
E: 1098.671351 0003 0000 329
E: 1098.671351 0000 0000 0
E: 1098.685452 0003 002f 0
E: 1098.685452 0003 0036 533
E: 1098.685452 0003 003a 58
E: 1098.685452 0003 002f 1
E: 1098.685452 0003 0036 494
E: 1098.685452 0003 0001 533
E: 1098.685452 0003 0018 58
E: 1098.685452 0000 0000 0
E: 1098.699522 0003 002f 0
E: 1098.699522 0003 003a 59
E: 1098.699522 0003 002f 1
E: 1098.699522 0003 0036 493
E: 1098.699522 0003 0018 59
E: 1098.699522 0000 0000 0
E: 1098.713615 0003 002f 0
E: 1098.713615 0003 0036 531
E: 1098.713615 0003 003a 57
E: 1098.713615 0003 002f 1
E: 1098.713615 0003 0036 491
E: 1098.713615 0003 0001 531
E: 1098.713615 0003 0018 57
E: 1098.713615 0000 0000 0
E: 1098.727591 0003 002f 0
E: 1098.727591 0003 0035 328
E: 1098.727591 0003 0036 530
E: 1098.727591 0003 003a 56
E: 1098.727591 0003 002f 1
E: 1098.727591 0003 0036 489
E: 1098.727591 0003 0000 328
E: 1098.727591 0003 0001 530
E: 1098.727591 0003 0018 56
E: 1098.727591 0000 0000 0
E: 1098.743367 0003 002f 0
E: 1098.743367 0003 0035 323
E: 1098.743367 0003 0036 498
E: 1098.743367 0003 003a 85
E: 1098.743367 0003 002f 1
E: 1098.743367 0003 0036 486
E: 1098.743367 0003 0000 323
E: 1098.743367 0003 0001 498
E: 1098.743367 0003 0018 85
E: 1098.743367 0000 0000 0
E: 1098.757908 0003 002f 0
E: 1098.757908 0003 0035 328
E: 1098.757908 0003 0036 529
E: 1098.757908 0003 003a 53
E: 1098.757908 0003 002f 1
E: 1098.757908 0003 0036 484
E: 1098.757908 0003 0000 328
E: 1098.757908 0003 0001 529
E: 1098.757908 0003 0018 53
E: 1098.757908 0000 0000 0
E: 1098.771414 0003 002f 0
E: 1098.771414 0003 0036 528
E: 1098.771414 0003 003a 52
E: 1098.771414 0003 002f 1
E: 1098.771414 0003 0035 503
E: 1098.771414 0003 0036 483
E: 1098.771414 0003 0001 528
E: 1098.771414 0003 0018 52
E: 1098.771414 0000 0000 0
E: 1098.785633 0003 002f 0
E: 1098.785633 0003 0035 327
E: 1098.785633 0003 0036 527
E: 1098.785633 0003 002f 1
E: 1098.785633 0003 0036 482
E: 1098.785633 0003 0000 327
E: 1098.785633 0003 0001 527
E: 1098.785633 0000 0000 0
E: 1098.801082 0003 002f 0
E: 1098.801082 0003 0035 321
E: 1098.801082 0003 0036 490
E: 1098.801082 0003 003a 88
E: 1098.801082 0003 002f 1
E: 1098.801082 0003 0035 504
E: 1098.801082 0003 0036 481
E: 1098.801082 0003 0000 321
E: 1098.801082 0003 0001 490
E: 1098.801082 0003 0018 88
E: 1098.801082 0000 0000 0
E: 1098.816837 0003 002f 0
E: 1098.816837 0003 0036 487
E: 1098.816837 0003 003a 87
E: 1098.816837 0003 002f 1
E: 1098.816837 0003 0036 479
E: 1098.816837 0003 0001 487
E: 1098.816837 0003 0018 87
E: 1098.816837 0000 0000 0
E: 1098.830490 0003 002f 0
E: 1098.830490 0003 0035 322
E: 1098.830490 0003 0036 493
E: 1098.830490 0003 003a 63
E: 1098.830490 0003 002f 1
E: 1098.830490 0003 0035 503
E: 1098.830490 0003 0000 322
E: 1098.830490 0003 0001 493
E: 1098.830490 0003 0018 63
E: 1098.830490 0000 0000 0
E: 1098.857686 0003 002f 0
E: 1098.857686 0003 0035 321
E: 1098.857686 0003 0036 491
E: 1098.857686 0003 002f 1
E: 1098.857686 0003 0035 502
E: 1098.857686 0003 0036 477
E: 1098.857686 0003 003a 61
E: 1098.857686 0003 0000 321
E: 1098.857686 0003 0001 491
E: 1098.857686 0000 0000 0
E: 1098.871238 0003 002f 0
E: 1098.871238 0003 0036 490
E: 1098.871238 0003 002f 1
E: 1098.871238 0003 0035 503
E: 1098.871238 0003 0036 476
E: 1098.871238 0003 003a 60
E: 1098.871238 0003 0001 490
E: 1098.871238 0000 0000 0
E: 1098.884851 0003 0035 502
E: 1098.884851 0003 0036 475
E: 1098.884851 0000 0000 0
E: 1098.898916 0003 002f 0
E: 1098.898916 0003 0035 320
E: 1098.898916 0003 0036 489
E: 1098.898916 0003 002f 1
E: 1098.898916 0003 0036 474
E: 1098.898916 0003 003a 59
E: 1098.898916 0003 0000 320
E: 1098.898916 0003 0001 489
E: 1098.898916 0000 0000 0
E: 1098.912036 0003 002f 0
E: 1098.912036 0003 0035 321
E: 1098.912036 0003 002f 1
E: 1098.912036 0003 0035 503
E: 1098.912036 0003 0036 473
E: 1098.912036 0003 003a 57
E: 1098.912036 0003 0000 321
E: 1098.912036 0000 0000 0
E: 1098.925697 0003 002f 0
E: 1098.925697 0003 0035 320
E: 1098.925697 0003 0036 487
E: 1098.925697 0003 002f 1
E: 1098.925697 0003 0036 472
E: 1098.925697 0003 0000 320
E: 1098.925697 0003 0001 487
E: 1098.925697 0000 0000 0
E: 1098.939426 0003 002f 0
E: 1098.939426 0003 0036 486
E: 1098.939426 0003 002f 1
E: 1098.939426 0003 0035 502
E: 1098.939426 0003 0036 471
E: 1098.939426 0003 003a 55
E: 1098.939426 0003 0001 486
E: 1098.939426 0000 0000 0
E: 1098.967071 0003 002f 0
E: 1098.967071 0003 0035 319
E: 1098.967071 0003 0036 485
E: 1098.967071 0003 0000 319
E: 1098.967071 0003 0001 485
E: 1098.967071 0000 0000 0
E: 1098.980966 0003 002f 1
E: 1098.980966 0003 0035 503
E: 1098.980966 0003 0036 470
E: 1098.980966 0003 003a 54
E: 1098.980966 0000 0000 0
E: 1098.995424 0003 002f 0
E: 1098.995424 0003 0036 483
E: 1098.995424 0003 002f 1
E: 1098.995424 0003 0035 502
E: 1098.995424 0003 003a 52
E: 1098.995424 0003 0001 483
E: 1098.995424 0000 0000 0
E: 1099.008981 0003 0035 492
E: 1099.008981 0003 0036 445
E: 1099.008981 0003 003a 63
E: 1099.008981 0000 0000 0
E: 1099.022775 0003 002f 0
E: 1099.022775 0003 0036 480
E: 1099.022775 0003 002f 1
E: 1099.022775 0003 0035 498
E: 1099.022775 0003 0036 443
E: 1099.022775 0003 0001 480
E: 1099.022775 0000 0000 0
E: 1099.036901 0003 002f 0
E: 1099.036901 0003 0036 481
E: 1099.036901 0003 002f 1
E: 1099.036901 0003 0036 442
E: 1099.036901 0003 0001 481
E: 1099.036901 0000 0000 0
E: 1099.050608 0003 002f 0
E: 1099.050608 0003 0036 480
E: 1099.050608 0003 002f 1
E: 1099.050608 0003 0035 499
E: 1099.050608 0003 0036 441
E: 1099.050608 0003 0001 480
E: 1099.050608 0000 0000 0
E: 1099.064543 0003 0035 498
E: 1099.064543 0003 0036 440
E: 1099.064543 0000 0000 0
E: 1099.078356 0003 002f 0
E: 1099.078356 0003 0036 479
E: 1099.078356 0003 002f 1
E: 1099.078356 0003 0035 492
E: 1099.078356 0003 0001 479
E: 1099.078356 0000 0000 0
E: 1099.092275 0003 002f 0
E: 1099.092275 0003 0036 477
E: 1099.092275 0003 0001 477
E: 1099.092275 0000 0000 0
E: 1099.106129 0003 003a 61
E: 1099.106129 0003 002f 1
E: 1099.106129 0003 0035 498
E: 1099.106129 0003 0036 439
E: 1099.106129 0003 0018 61
E: 1099.106129 0000 0000 0
E: 1099.119949 0003 002f 0
E: 1099.119949 0003 003a 60
E: 1099.119949 0003 002f 1
E: 1099.119949 0003 0036 437
E: 1099.119949 0003 0018 60
E: 1099.119949 0000 0000 0
E: 1099.133927 0003 002f 0
E: 1099.133927 0003 0035 318
E: 1099.133927 0003 0036 476
E: 1099.133927 0003 002f 1
E: 1099.133927 0003 0036 436
E: 1099.133927 0003 0000 318
E: 1099.133927 0003 0001 476
E: 1099.133927 0000 0000 0
E: 1099.147783 0003 002f 0
E: 1099.147783 0003 003a 59
E: 1099.147783 0003 0018 59
E: 1099.147783 0000 0000 0
E: 1099.161722 0003 0036 475
E: 1099.161722 0003 002f 1
E: 1099.161722 0003 0036 435
E: 1099.161722 0003 0001 475
E: 1099.161722 0000 0000 0
E: 1099.176021 0003 002f 0
E: 1099.176021 0003 0035 317
E: 1099.176021 0003 0036 474
E: 1099.176021 0003 003a 58
E: 1099.176021 0003 002f 1
E: 1099.176021 0003 0035 497
E: 1099.176021 0003 0036 434
E: 1099.176021 0003 0000 317
E: 1099.176021 0003 0001 474
E: 1099.176021 0003 0018 58
E: 1099.176021 0000 0000 0
E: 1099.189465 0003 002f 0
E: 1099.189465 0003 0035 319
E: 1099.189465 0003 0036 473
E: 1099.189465 0003 002f 1
E: 1099.189465 0003 0035 498
E: 1099.189465 0003 0036 433
E: 1099.189465 0003 0000 319
E: 1099.189465 0003 0001 473
E: 1099.189465 0000 0000 0
E: 1099.203447 0003 002f 0
E: 1099.203447 0003 0035 318
E: 1099.203447 0003 0000 318
E: 1099.203447 0000 0000 0
E: 1099.217261 0003 003a 59
E: 1099.217261 0003 002f 1
E: 1099.217261 0003 0035 499
E: 1099.217261 0003 0018 59
E: 1099.217261 0000 0000 0
E: 1099.231116 0003 002f 0
E: 1099.231116 0003 003a 58
E: 1099.231116 0003 002f 1
E: 1099.231116 0003 0035 498
E: 1099.231116 0003 0036 431
E: 1099.231116 0003 0018 58
E: 1099.231116 0000 0000 0
E: 1099.245038 0003 002f 0
E: 1099.245038 0003 0036 472
E: 1099.245038 0003 003a 57
E: 1099.245038 0003 002f 1
E: 1099.245038 0003 0036 430
E: 1099.245038 0003 0001 472
E: 1099.245038 0003 0018 57
E: 1099.245038 0000 0000 0
E: 1099.258851 0003 002f 0
E: 1099.258851 0003 003a 58
E: 1099.258851 0003 0018 58
E: 1099.258851 0000 0000 0
E: 1099.272796 0003 003a 56
E: 1099.272796 0003 0018 56
E: 1099.272796 0000 0000 0
E: 1099.286680 0003 0035 317
E: 1099.286680 0003 003a 55
E: 1099.286680 0003 002f 1
E: 1099.286680 0003 0035 489
E: 1099.286680 0003 0036 412
E: 1099.286680 0003 003a 57
E: 1099.286680 0003 0000 317
E: 1099.286680 0003 0018 55
E: 1099.286680 0000 0000 0
E: 1099.300454 0003 002f 0
E: 1099.300454 0003 003a 54
E: 1099.300454 0003 0018 54
E: 1099.300454 0000 0000 0
E: 1099.314461 0003 0036 471
E: 1099.314461 0003 0001 471
E: 1099.314461 0000 0000 0
E: 1099.328247 0003 0035 316
E: 1099.328247 0003 003a 53
E: 1099.328247 0003 002f 1
E: 1099.328247 0003 0036 409
E: 1099.328247 0003 003a 59
E: 1099.328247 0003 0000 316
E: 1099.328247 0003 0018 53
E: 1099.328247 0000 0000 0
E: 1099.342095 0003 002f 0
E: 1099.342095 0003 0036 470
E: 1099.342095 0003 003a 52
E: 1099.342095 0003 002f 1
E: 1099.342095 0003 0035 490
E: 1099.342095 0003 0036 408
E: 1099.342095 0003 003a 60
E: 1099.342095 0003 0001 470
E: 1099.342095 0003 0018 52
E: 1099.342095 0000 0000 0
E: 1099.355981 0003 002f 0
E: 1099.355981 0003 0035 310
E: 1099.355981 0003 0036 437
E: 1099.355981 0003 003a 63
E: 1099.355981 0003 002f 1
E: 1099.355981 0003 0036 407
E: 1099.355981 0003 0000 310
E: 1099.355981 0003 0001 437
E: 1099.355981 0003 0018 63
E: 1099.355981 0000 0000 0
E: 1099.369573 0003 002f 0
E: 1099.369573 0003 0035 314
E: 1099.369573 0003 0036 436
E: 1099.369573 0003 002f 1
E: 1099.369573 0003 0036 404
E: 1099.369573 0003 003a 63
E: 1099.369573 0003 0000 314
E: 1099.369573 0003 0001 436
E: 1099.369573 0000 0000 0
E: 1099.383200 0003 002f 0
E: 1099.383200 0003 0035 306
E: 1099.383200 0003 0036 406
E: 1099.383200 0003 003a 62
E: 1099.383200 0003 002f 1
E: 1099.383200 0003 0035 491
E: 1099.383200 0003 0036 403
E: 1099.383200 0003 003a 62
E: 1099.383200 0003 0000 306
E: 1099.383200 0003 0001 406
E: 1099.383200 0003 0018 62
E: 1099.383200 0000 0000 0
E: 1099.396811 0003 002f 0
E: 1099.396811 0003 0035 307
E: 1099.396811 0003 0036 403
E: 1099.396811 0003 003a 63
E: 1099.396811 0003 002f 1
E: 1099.396811 0003 0036 400
E: 1099.396811 0003 003a 63
E: 1099.396811 0003 0000 307
E: 1099.396811 0003 0001 403
E: 1099.396811 0003 0018 63
E: 1099.396811 0000 0000 0
E: 1099.410523 0003 002f 0
E: 1099.410523 0003 0035 314
E: 1099.410523 0003 0036 434
E: 1099.410523 0003 002f 1
E: 1099.410523 0003 0036 399
E: 1099.410523 0003 0000 314
E: 1099.410523 0003 0001 434
E: 1099.410523 0000 0000 0
E: 1099.424260 0003 002f 0
E: 1099.424260 0003 0035 306
E: 1099.424260 0003 0036 401
E: 1099.424260 0003 002f 1
E: 1099.424260 0003 0036 397
E: 1099.424260 0003 0000 306
E: 1099.424260 0003 0001 401
E: 1099.424260 0000 0000 0
E: 1099.437833 0003 002f 0
E: 1099.437833 0003 0036 400
E: 1099.437833 0003 002f 1
E: 1099.437833 0003 0036 395
E: 1099.437833 0003 0001 400
E: 1099.437833 0000 0000 0
E: 1099.451822 0003 002f 0
E: 1099.451822 0003 0036 398
E: 1099.451822 0003 002f 1
E: 1099.451822 0003 0035 492
E: 1099.451822 0003 0036 394
E: 1099.451822 0003 0001 398
E: 1099.451822 0000 0000 0
E: 1099.465114 0003 0035 491
E: 1099.465114 0000 0000 0
E: 1099.479043 0003 002f 0
E: 1099.479043 0003 0035 307
E: 1099.479043 0003 002f 1
E: 1099.479043 0003 0035 492
E: 1099.479043 0003 0036 393
E: 1099.479043 0003 0000 307
E: 1099.479043 0000 0000 0
E: 1099.492843 0003 002f 0
E: 1099.492843 0003 0035 306
E: 1099.492843 0003 0036 397
E: 1099.492843 0003 002f 1
E: 1099.492843 0003 0036 392
E: 1099.492843 0003 0000 306
E: 1099.492843 0003 0001 397
E: 1099.492843 0000 0000 0
E: 1099.506654 0003 002f 0
E: 1099.506654 0003 0036 396
E: 1099.506654 0003 002f 1
E: 1099.506654 0003 0036 391
E: 1099.506654 0003 0001 396
E: 1099.506654 0000 0000 0
E: 1099.520769 0003 002f 0
E: 1099.520769 0003 0036 397
E: 1099.520769 0003 002f 1
E: 1099.520769 0003 0036 390
E: 1099.520769 0003 0001 397
E: 1099.520769 0000 0000 0
E: 1099.534291 0003 002f 0
E: 1099.534291 0003 0035 305
E: 1099.534291 0003 0036 396
E: 1099.534291 0003 0000 305
E: 1099.534291 0003 0001 396
E: 1099.534291 0000 0000 0
E: 1099.548225 0003 0036 394
E: 1099.548225 0003 002f 1
E: 1099.548225 0003 0036 388
E: 1099.548225 0003 0001 394
E: 1099.548225 0000 0000 0
E: 1099.562455 0003 002f 0
E: 1099.562455 0003 0035 306
E: 1099.562455 0003 0036 393
E: 1099.562455 0003 002f 1
E: 1099.562455 0003 0036 387
E: 1099.562455 0003 0000 306
E: 1099.562455 0003 0001 393
E: 1099.562455 0000 0000 0
E: 1099.575634 0003 0036 386
E: 1099.575634 0000 0000 0
E: 1099.589732 0003 0035 493
E: 1099.589732 0003 0036 385
E: 1099.589732 0000 0000 0
E: 1099.603249 0003 002f 0
E: 1099.603249 0003 0036 392
E: 1099.603249 0003 002f 1
E: 1099.603249 0003 0036 383
E: 1099.603249 0003 0001 392
E: 1099.603249 0000 0000 0
E: 1099.617077 0003 002f 0
E: 1099.617077 0003 0035 307
E: 1099.617077 0003 0000 307
E: 1099.617077 0000 0000 0
E: 1099.630940 0003 0036 389
E: 1099.630940 0003 002f 1
E: 1099.630940 0003 0036 380
E: 1099.630940 0003 0001 389
E: 1099.630940 0000 0000 0
E: 1099.644770 0003 002f 0
E: 1099.644770 0003 0036 388
E: 1099.644770 0003 002f 1
E: 1099.644770 0003 0035 494
E: 1099.644770 0003 0036 378
E: 1099.644770 0003 0001 388
E: 1099.644770 0000 0000 0
E: 1099.658807 0003 0035 493
E: 1099.658807 0003 0036 377
E: 1099.658807 0000 0000 0
E: 1099.672854 0003 002f 0
E: 1099.672854 0003 0036 387
E: 1099.672854 0003 002f 1
E: 1099.672854 0003 0035 494
E: 1099.672854 0003 0036 376
E: 1099.672854 0003 0001 387
E: 1099.672854 0000 0000 0
E: 1099.686541 0003 002f 0
E: 1099.686541 0003 0035 308
E: 1099.686541 0003 0036 386
E: 1099.686541 0003 002f 1
E: 1099.686541 0003 0035 490
E: 1099.686541 0003 0036 355
E: 1099.686541 0003 003a 54
E: 1099.686541 0003 0000 308
E: 1099.686541 0003 0001 386
E: 1099.686541 0000 0000 0
E: 1099.699717 0003 0035 494
E: 1099.699717 0003 0036 369
E: 1099.699717 0003 003a 63
E: 1099.699717 0000 0000 0
E: 1099.713583 0003 002f 0
E: 1099.713583 0003 0035 307
E: 1099.713583 0003 0036 383
E: 1099.713583 0003 002f 1
E: 1099.713583 0003 0035 490
E: 1099.713583 0003 0036 354
E: 1099.713583 0003 003a 57
E: 1099.713583 0003 0000 307
E: 1099.713583 0003 0001 383
E: 1099.713583 0000 0000 0
E: 1099.727432 0003 002f 0
E: 1099.727432 0003 0036 381
E: 1099.727432 0003 002f 1
E: 1099.727432 0003 0036 352
E: 1099.727432 0003 003a 58
E: 1099.727432 0003 0001 381
E: 1099.727432 0000 0000 0
E: 1099.741332 0003 002f 0
E: 1099.741332 0003 0036 380
E: 1099.741332 0003 002f 1
E: 1099.741332 0003 0036 350
E: 1099.741332 0003 003a 59
E: 1099.741332 0003 0001 380
E: 1099.741332 0000 0000 0
E: 1099.755080 0003 002f 0
E: 1099.755080 0003 0036 379
E: 1099.755080 0003 002f 1
E: 1099.755080 0003 0036 348
E: 1099.755080 0003 003a 60
E: 1099.755080 0003 0001 379
E: 1099.755080 0000 0000 0
E: 1099.768725 0003 002f 0
E: 1099.768725 0003 0035 303
E: 1099.768725 0003 0036 350
E: 1099.768725 0003 003a 60
E: 1099.768725 0003 002f 1
E: 1099.768725 0003 0035 491
E: 1099.768725 0003 0036 347
E: 1099.768725 0003 0000 303
E: 1099.768725 0003 0001 350
E: 1099.768725 0003 0018 60
E: 1099.768725 0000 0000 0
E: 1099.782395 0003 002f 0
E: 1099.782395 0003 0036 348
E: 1099.782395 0003 003a 62
E: 1099.782395 0003 002f 1
E: 1099.782395 0003 0036 345
E: 1099.782395 0003 003a 62
E: 1099.782395 0003 0001 348
E: 1099.782395 0003 0018 62
E: 1099.782395 0000 0000 0
E: 1099.796148 0003 002f 0
E: 1099.796148 0003 0036 346
E: 1099.796148 0003 003a 63
E: 1099.796148 0003 002f 1
E: 1099.796148 0003 0036 342
E: 1099.796148 0003 003a 63
E: 1099.796148 0003 0001 346
E: 1099.796148 0003 0018 63
E: 1099.796148 0000 0000 0
E: 1099.809760 0003 002f 0
E: 1099.809760 0003 0035 302
E: 1099.809760 0003 0036 344
E: 1099.809760 0003 002f 1
E: 1099.809760 0003 0036 341
E: 1099.809760 0003 0000 302
E: 1099.809760 0003 0001 344
E: 1099.809760 0000 0000 0
E: 1099.837155 0003 002f 0
E: 1099.837155 0003 0035 303
E: 1099.837155 0003 0036 342
E: 1099.837155 0003 002f 1
E: 1099.837155 0003 0035 492
E: 1099.837155 0003 0036 338
E: 1099.837155 0003 0000 303
E: 1099.837155 0003 0001 342
E: 1099.837155 0000 0000 0
E: 1099.850844 0003 002f 0
E: 1099.850844 0003 0036 340
E: 1099.850844 0003 002f 1
E: 1099.850844 0003 0035 491
E: 1099.850844 0003 0036 335
E: 1099.850844 0003 0001 340
E: 1099.850844 0000 0000 0
E: 1099.864778 0003 002f 0
E: 1099.864778 0003 0036 339
E: 1099.864778 0003 002f 1
E: 1099.864778 0003 0036 334
E: 1099.864778 0003 0001 339
E: 1099.864778 0000 0000 0
E: 1099.878704 0003 002f 0
E: 1099.878704 0003 0036 337
E: 1099.878704 0003 002f 1
E: 1099.878704 0003 0036 332
E: 1099.878704 0003 0001 337
E: 1099.878704 0000 0000 0
E: 1099.892636 0003 0036 331
E: 1099.892636 0000 0000 0
E: 1099.906565 0003 002f 0
E: 1099.906565 0003 0036 335
E: 1099.906565 0003 002f 1
E: 1099.906565 0003 0035 492
E: 1099.906565 0003 0036 328
E: 1099.906565 0003 0001 335
E: 1099.906565 0000 0000 0
E: 1099.919991 0003 0036 327
E: 1099.919991 0000 0000 0
E: 1099.933787 0003 002f 0
E: 1099.933787 0003 0035 304
E: 1099.933787 0003 0036 333
E: 1099.933787 0003 002f 1
E: 1099.933787 0003 0036 326
E: 1099.933787 0003 0000 304
E: 1099.933787 0003 0001 333
E: 1099.933787 0000 0000 0
E: 1099.947647 0003 002f 0
E: 1099.947647 0003 0035 303
E: 1099.947647 0003 0036 331
E: 1099.947647 0003 002f 1
E: 1099.947647 0003 0036 324
E: 1099.947647 0003 0000 303
E: 1099.947647 0003 0001 331
E: 1099.947647 0000 0000 0
E: 1099.961559 0003 0035 493
E: 1099.961559 0003 0036 323
E: 1099.961559 0000 0000 0
E: 1099.975348 0003 002f 0
E: 1099.975348 0003 0036 330
E: 1099.975348 0003 002f 1
E: 1099.975348 0003 0035 492
E: 1099.975348 0003 0036 321
E: 1099.975348 0003 0001 330
E: 1099.975348 0000 0000 0
E: 1099.989132 0003 002f 0
E: 1099.989132 0003 0036 329
E: 1099.989132 0003 002f 1
E: 1099.989132 0003 0035 493
E: 1099.989132 0003 0001 329
E: 1099.989132 0000 0000 0
E: 1100.002992 0003 0036 320
E: 1100.002992 0000 0000 0
E: 1100.016839 0003 0036 319
E: 1100.016839 0000 0000 0
E: 1100.030766 0003 002f 0
E: 1100.030766 0003 0036 326
E: 1100.030766 0003 002f 1
E: 1100.030766 0003 0036 316
E: 1100.030766 0003 0001 326
E: 1100.030766 0000 0000 0
E: 1100.044722 0003 0036 314
E: 1100.044722 0000 0000 0
E: 1100.058554 0003 0035 489
E: 1100.058554 0003 0036 296
E: 1100.058554 0003 003a 55
E: 1100.058554 0000 0000 0
E: 1100.072494 0003 002f 0
E: 1100.072494 0003 0036 325
E: 1100.072494 0003 002f 1
E: 1100.072494 0003 0036 295
E: 1100.072494 0003 003a 56
E: 1100.072494 0003 0001 325
E: 1100.072494 0000 0000 0
E: 1100.086424 0003 002f 0
E: 1100.086424 0003 0036 324
E: 1100.086424 0003 002f 1
E: 1100.086424 0003 0035 488
E: 1100.086424 0003 003a 57
E: 1100.086424 0003 0001 324
E: 1100.086424 0000 0000 0
E: 1100.100304 0003 002f 0
E: 1100.100304 0003 0036 323
E: 1100.100304 0003 002f 1
E: 1100.100304 0003 0035 489
E: 1100.100304 0003 0036 294
E: 1100.100304 0003 003a 58
E: 1100.100304 0003 0001 323
E: 1100.100304 0000 0000 0
E: 1100.114179 0003 002f 0
E: 1100.114179 0003 0035 298
E: 1100.114179 0003 0036 294
E: 1100.114179 0003 003a 60
E: 1100.114179 0003 002f 1
E: 1100.114179 0003 0036 292
E: 1100.114179 0003 003a 59
E: 1100.114179 0003 0000 298
E: 1100.114179 0003 0001 294
E: 1100.114179 0003 0018 60
E: 1100.114179 0000 0000 0
E: 1100.128155 0003 002f 0
E: 1100.128155 0003 0035 299
E: 1100.128155 0003 0036 293
E: 1100.128155 0003 002f 1
E: 1100.128155 0003 0036 291
E: 1100.128155 0003 003a 60
E: 1100.128155 0003 0000 299
E: 1100.128155 0003 0001 293
E: 1100.128155 0000 0000 0
E: 1100.141911 0003 002f 0
E: 1100.141911 0003 0035 303
E: 1100.141911 0003 0036 319
E: 1100.141911 0003 003a 63
E: 1100.141911 0003 002f 1
E: 1100.141911 0003 0036 290
E: 1100.141911 0003 0000 303
E: 1100.141911 0003 0001 319
E: 1100.141911 0003 0018 63
E: 1100.141911 0000 0000 0
E: 1100.155716 0003 002f 0
E: 1100.155716 0003 0036 318
E: 1100.155716 0003 002f 1
E: 1100.155716 0003 0036 289
E: 1100.155716 0003 003a 61
E: 1100.155716 0003 0001 318
E: 1100.155716 0000 0000 0
E: 1100.169589 0003 002f 0
E: 1100.169589 0003 0035 299
E: 1100.169589 0003 0036 291
E: 1100.169589 0003 003a 61
E: 1100.169589 0003 002f 1
E: 1100.169589 0003 0035 490
E: 1100.169589 0003 003a 60
E: 1100.169589 0003 0000 299
E: 1100.169589 0003 0001 291
E: 1100.169589 0003 0018 61
E: 1100.169589 0000 0000 0
E: 1100.183253 0003 002f 0
E: 1100.183253 0003 0035 300
E: 1100.183253 0003 0036 289
E: 1100.183253 0003 003a 62
E: 1100.183253 0003 002f 1
E: 1100.183253 0003 0036 287
E: 1100.183253 0003 003a 62
E: 1100.183253 0003 0000 300
E: 1100.183253 0003 0001 289
E: 1100.183253 0003 0018 62
E: 1100.183253 0000 0000 0
E: 1100.197099 0003 002f 0
E: 1100.197099 0003 0036 288
E: 1100.197099 0003 003a 63
E: 1100.197099 0003 002f 1
E: 1100.197099 0003 0036 286
E: 1100.197099 0003 0001 288
E: 1100.197099 0003 0018 63
E: 1100.197099 0000 0000 0
E: 1100.210970 0003 0036 285
E: 1100.210970 0003 003a 63
E: 1100.210970 0000 0000 0
E: 1100.238379 0003 002f 0
E: 1100.238379 0003 0036 287
E: 1100.238379 0003 002f 1
E: 1100.238379 0003 0036 284
E: 1100.238379 0003 0001 287
E: 1100.238379 0000 0000 0
E: 1100.252038 0003 002f 0
E: 1100.252038 0003 0036 286
E: 1100.252038 0003 002f 1
E: 1100.252038 0003 0035 491
E: 1100.252038 0003 0036 283
E: 1100.252038 0003 0001 286
E: 1100.252038 0000 0000 0
E: 1100.265626 0003 002f 0
E: 1100.265626 0003 0035 301
E: 1100.265626 0003 0036 284
E: 1100.265626 0003 002f 1
E: 1100.265626 0003 0035 490
E: 1100.265626 0003 0036 281
E: 1100.265626 0003 0000 301
E: 1100.265626 0003 0001 284
E: 1100.265626 0000 0000 0
E: 1100.279404 0003 0035 491
E: 1100.279404 0000 0000 0
E: 1100.293035 0003 0035 492
E: 1100.293035 0000 0000 0
E: 1100.306807 0003 002f 0
E: 1100.306807 0003 0036 283
E: 1100.306807 0003 002f 1
E: 1100.306807 0003 0035 491
E: 1100.306807 0003 0036 279
E: 1100.306807 0003 0001 283
E: 1100.306807 0000 0000 0
E: 1100.320512 0003 002f 0
E: 1100.320512 0003 0035 302
E: 1100.320512 0003 0036 281
E: 1100.320512 0003 002f 1
E: 1100.320512 0003 0036 278
E: 1100.320512 0003 0000 302
E: 1100.320512 0003 0001 281
E: 1100.320512 0000 0000 0
E: 1100.334082 0003 002f 0
E: 1100.334082 0003 0036 280
E: 1100.334082 0003 002f 1
E: 1100.334082 0003 0035 492
E: 1100.334082 0003 0036 276
E: 1100.334082 0003 0001 280
E: 1100.334082 0000 0000 0
E: 1100.347955 0003 002f 0
E: 1100.347955 0003 0035 303
E: 1100.347955 0003 0036 278
E: 1100.347955 0003 002f 1
E: 1100.347955 0003 0035 491
E: 1100.347955 0003 0036 274
E: 1100.347955 0003 0000 303
E: 1100.347955 0003 0001 278
E: 1100.347955 0000 0000 0
E: 1100.361916 0003 0035 492
E: 1100.361916 0000 0000 0
E: 1100.375848 0003 002f 0
E: 1100.375848 0003 0036 277
E: 1100.375848 0003 002f 1
E: 1100.375848 0003 0036 273
E: 1100.375848 0003 0001 277
E: 1100.375848 0000 0000 0
E: 1100.389649 0003 0036 272
E: 1100.389649 0000 0000 0
E: 1100.403389 0003 0035 493
E: 1100.403389 0000 0000 0
E: 1100.417219 0003 002f 0
E: 1100.417219 0003 0036 276
E: 1100.417219 0003 002f 1
E: 1100.417219 0003 0035 492
E: 1100.417219 0003 0036 270
E: 1100.417219 0003 0001 276
E: 1100.417219 0000 0000 0
E: 1100.431038 0003 002f 0
E: 1100.431038 0003 0035 304
E: 1100.431038 0003 0036 275
E: 1100.431038 0003 002f 1
E: 1100.431038 0003 0036 269
E: 1100.431038 0003 0000 304
E: 1100.431038 0003 0001 275
E: 1100.431038 0000 0000 0
E: 1100.444859 0003 002f 0
E: 1100.444859 0003 0035 303
E: 1100.444859 0003 0036 273
E: 1100.444859 0003 002f 1
E: 1100.444859 0003 0036 266
E: 1100.444859 0003 0000 303
E: 1100.444859 0003 0001 273
E: 1100.444859 0000 0000 0
E: 1100.458688 0003 002f 0
E: 1100.458688 0003 0035 304
E: 1100.458688 0003 0036 272
E: 1100.458688 0003 0000 304
E: 1100.458688 0003 0001 272
E: 1100.458688 0000 0000 0
E: 1100.472772 0003 002f 1
E: 1100.472772 0003 0035 494
E: 1100.472772 0003 0036 265
E: 1100.472772 0000 0000 0
E: 1100.486441 0003 002f 0
E: 1100.486441 0003 0036 271
E: 1100.486441 0003 002f 1
E: 1100.486441 0003 0035 493
E: 1100.486441 0003 0036 263
E: 1100.486441 0003 0001 271
E: 1100.486441 0000 0000 0
E: 1100.500292 0003 002f 0
E: 1100.500292 0003 0036 270
E: 1100.500292 0003 002f 1
E: 1100.500292 0003 0035 494
E: 1100.500292 0003 0036 262
E: 1100.500292 0003 0001 270
E: 1100.500292 0000 0000 0
E: 1100.514167 0003 002f 0
E: 1100.514167 0003 0036 269
E: 1100.514167 0003 0001 269
E: 1100.514167 0000 0000 0
E: 1100.528037 0003 0036 270
E: 1100.528037 0003 002f 1
E: 1100.528037 0003 0036 261
E: 1100.528037 0003 0001 270
E: 1100.528037 0000 0000 0
E: 1100.541978 0003 002f 0
E: 1100.541978 0003 0035 303
E: 1100.541978 0003 0036 268
E: 1100.541978 0003 002f 1
E: 1100.541978 0003 0036 260
E: 1100.541978 0003 0000 303
E: 1100.541978 0003 0001 268
E: 1100.541978 0000 0000 0
E: 1100.555919 0003 0036 259
E: 1100.555919 0000 0000 0
E: 1100.569776 0003 0035 489
E: 1100.569776 0003 0036 237
E: 1100.569776 0003 003a 56
E: 1100.569776 0000 0000 0
E: 1100.583786 0003 002f 0
E: 1100.583786 0003 0036 266
E: 1100.583786 0003 002f 1
E: 1100.583786 0003 0036 236
E: 1100.583786 0003 003a 58
E: 1100.583786 0003 0001 266
E: 1100.583786 0000 0000 0
E: 1100.597813 0003 002f 0
E: 1100.597813 0003 0035 304
E: 1100.597813 0003 002f 1
E: 1100.597813 0003 0035 488
E: 1100.597813 0003 0036 235
E: 1100.597813 0003 003a 59
E: 1100.597813 0003 0000 304
E: 1100.597813 0000 0000 0
E: 1100.611693 0003 002f 0
E: 1100.611693 0003 0036 265
E: 1100.611693 0003 002f 1
E: 1100.611693 0003 0035 489
E: 1100.611693 0003 0036 234
E: 1100.611693 0003 0001 265
E: 1100.611693 0000 0000 0
E: 1100.625668 0003 002f 0
E: 1100.625668 0003 0035 303
E: 1100.625668 0003 0036 262
E: 1100.625668 0003 002f 1
E: 1100.625668 0003 0035 488
E: 1100.625668 0003 0036 231
E: 1100.625668 0003 003a 62
E: 1100.625668 0003 0000 303
E: 1100.625668 0003 0001 262
E: 1100.625668 0000 0000 0
E: 1100.639556 0003 002f 0
E: 1100.639556 0003 0036 260
E: 1100.639556 0003 002f 1
E: 1100.639556 0003 0035 489
E: 1100.639556 0003 0036 230
E: 1100.639556 0003 0001 260
E: 1100.639556 0000 0000 0
E: 1100.667410 0003 0035 488
E: 1100.667410 0003 0036 228
E: 1100.667410 0003 003a 63
E: 1100.667410 0000 0000 0
E: 1100.681366 0003 0035 489
E: 1100.681366 0003 0036 227
E: 1100.681366 0000 0000 0
E: 1100.695387 0003 002f 0
E: 1100.695387 0003 0035 304
E: 1100.695387 0003 0036 259
E: 1100.695387 0003 002f 1
E: 1100.695387 0003 0036 225
E: 1100.695387 0003 0000 304
E: 1100.695387 0003 0001 259
E: 1100.695387 0000 0000 0
E: 1100.723240 0003 002f 0
E: 1100.723240 0003 0035 303
E: 1100.723240 0003 0036 258
E: 1100.723240 0003 002f 1
E: 1100.723240 0003 0036 223
E: 1100.723240 0003 0000 303
E: 1100.723240 0003 0001 258
E: 1100.723240 0000 0000 0
E: 1100.737109 0003 002f 0
E: 1100.737109 0003 0035 300
E: 1100.737109 0003 0036 226
E: 1100.737109 0003 002f 1
E: 1100.737109 0003 0035 490
E: 1100.737109 0003 0036 222
E: 1100.737109 0003 0000 300
E: 1100.737109 0003 0001 226
E: 1100.737109 0000 0000 0
E: 1100.750918 0003 002f 0
E: 1100.750918 0003 0035 303
E: 1100.750918 0003 0036 257
E: 1100.750918 0003 0000 303
E: 1100.750918 0003 0001 257
E: 1100.750918 0000 0000 0
E: 1100.764672 0003 0036 256
E: 1100.764672 0003 002f 1
E: 1100.764672 0003 0036 220
E: 1100.764672 0003 0001 256
E: 1100.764672 0000 0000 0
E: 1100.778363 0003 002f 0
E: 1100.778363 0003 0035 304
E: 1100.778363 0003 0036 255
E: 1100.778363 0003 0000 304
E: 1100.778363 0003 0001 255
E: 1100.778363 0000 0000 0
E: 1100.792276 0003 002f 1
E: 1100.792276 0003 0036 218
E: 1100.792276 0000 0000 0
E: 1100.806176 0003 002f 0
E: 1100.806176 0003 0036 254
E: 1100.806176 0003 002f 1
E: 1100.806176 0003 0035 491
E: 1100.806176 0003 0001 254
E: 1100.806176 0000 0000 0
E: 1100.820204 0003 0036 217
E: 1100.820204 0000 0000 0
E: 1100.834181 0003 002f 0
E: 1100.834181 0003 0036 253
E: 1100.834181 0003 002f 1
E: 1100.834181 0003 0036 215
E: 1100.834181 0003 0001 253
E: 1100.834181 0000 0000 0
E: 1100.848139 0003 002f 0
E: 1100.848139 0003 0035 301
E: 1100.848139 0003 0036 216
E: 1100.848139 0003 002f 1
E: 1100.848139 0003 0035 490
E: 1100.848139 0003 0036 213
E: 1100.848139 0003 0000 301
E: 1100.848139 0003 0001 216
E: 1100.848139 0000 0000 0
E: 1100.862594 0003 002f 0
E: 1100.862594 0003 0036 217
E: 1100.862594 0003 0001 217
E: 1100.862594 0000 0000 0
E: 1100.876416 0003 0036 216
E: 1100.876416 0003 002f 1
E: 1100.876416 0003 0035 491
E: 1100.876416 0003 0036 211
E: 1100.876416 0003 0001 216
E: 1100.876416 0000 0000 0
E: 1100.903662 0003 0036 210
E: 1100.903662 0000 0000 0
E: 1100.917556 0003 002f 0
E: 1100.917556 0003 0036 214
E: 1100.917556 0003 002f 1
E: 1100.917556 0003 0036 208
E: 1100.917556 0003 0001 214
E: 1100.917556 0000 0000 0
E: 1100.931606 0003 0036 209
E: 1100.931606 0000 0000 0
E: 1100.945454 0003 002f 0
E: 1100.945454 0003 0036 213
E: 1100.945454 0003 002f 1
E: 1100.945454 0003 0036 208
E: 1100.945454 0003 0001 213
E: 1100.945454 0000 0000 0
E: 1100.959302 0003 002f 0
E: 1100.959302 0003 0036 211
E: 1100.959302 0003 002f 1
E: 1100.959302 0003 0036 206
E: 1100.959302 0003 0001 211
E: 1100.959302 0000 0000 0
E: 1100.973207 0003 0035 492
E: 1100.973207 0003 0036 205
E: 1100.973207 0000 0000 0
E: 1100.987371 0003 002f 0
E: 1100.987371 0003 0035 299
E: 1100.987371 0003 0036 210
E: 1100.987371 0003 002f 1
E: 1100.987371 0003 0036 204
E: 1100.987371 0003 0000 299
E: 1100.987371 0003 0001 210
E: 1100.987371 0000 0000 0
E: 1101.001147 0003 002f 0
E: 1101.001147 0003 0035 300
E: 1101.001147 0003 0036 209
E: 1101.001147 0003 002f 1
E: 1101.001147 0003 0036 203
E: 1101.001147 0003 0000 300
E: 1101.001147 0003 0001 209
E: 1101.001147 0000 0000 0
E: 1101.015078 0003 002f 0
E: 1101.015078 0003 0036 207
E: 1101.015078 0003 002f 1
E: 1101.015078 0003 0035 486
E: 1101.015078 0003 0036 176
E: 1101.015078 0003 003a 58
E: 1101.015078 0003 0001 207
E: 1101.015078 0000 0000 0
E: 1101.028981 0003 0035 487
E: 1101.028981 0003 003a 57
E: 1101.028981 0000 0000 0
E: 1101.043039 0003 002f 0
E: 1101.043039 0003 0036 206
E: 1101.043039 0003 002f 1
E: 1101.043039 0003 0035 486
E: 1101.043039 0003 0036 175
E: 1101.043039 0003 003a 59
E: 1101.043039 0003 0001 206
E: 1101.043039 0000 0000 0
E: 1101.056921 0003 002f 0
E: 1101.056921 0003 0035 295
E: 1101.056921 0003 0036 175
E: 1101.056921 0003 003a 59
E: 1101.056921 0003 002f 1
E: 1101.056921 0003 0035 487
E: 1101.056921 0003 0036 174
E: 1101.056921 0003 0000 295
E: 1101.056921 0003 0001 175
E: 1101.056921 0003 0018 59
E: 1101.056921 0000 0000 0
E: 1101.070922 0003 002f 0
E: 1101.070922 0003 0035 300
E: 1101.070922 0003 0036 203
E: 1101.070922 0003 003a 63
E: 1101.070922 0003 002f 1
E: 1101.070922 0003 0036 173
E: 1101.070922 0003 003a 61
E: 1101.070922 0003 0000 300
E: 1101.070922 0003 0001 203
E: 1101.070922 0003 0018 63
E: 1101.070922 0000 0000 0
E: 1101.084941 0003 002f 0
E: 1101.084941 0003 0035 295
E: 1101.084941 0003 0036 171
E: 1101.084941 0003 003a 61
E: 1101.084941 0003 002f 1
E: 1101.084941 0003 0036 170
E: 1101.084941 0003 0000 295
E: 1101.084941 0003 0001 171
E: 1101.084941 0003 0018 61
E: 1101.084941 0000 0000 0
E: 1101.098825 0003 002f 0
E: 1101.098825 0003 0036 170
E: 1101.098825 0003 003a 62
E: 1101.098825 0003 002f 1
E: 1101.098825 0003 0036 169
E: 1101.098825 0003 003a 63
E: 1101.098825 0003 0001 170
E: 1101.098825 0003 0018 62
E: 1101.098825 0000 0000 0
E: 1101.112797 0003 002f 0
E: 1101.112797 0003 0035 296
E: 1101.112797 0003 0036 169
E: 1101.112797 0003 003a 63
E: 1101.112797 0003 002f 1
E: 1101.112797 0003 0035 488
E: 1101.112797 0003 0036 168
E: 1101.112797 0003 0000 296
E: 1101.112797 0003 0001 169
E: 1101.112797 0003 0018 63
E: 1101.112797 0000 0000 0
E: 1101.126753 0003 002f 0
E: 1101.126753 0003 0036 168
E: 1101.126753 0003 002f 1
E: 1101.126753 0003 0035 487
E: 1101.126753 0003 0036 166
E: 1101.126753 0003 0001 168
E: 1101.126753 0000 0000 0
E: 1101.140708 0003 002f 0
E: 1101.140708 0003 0035 297
E: 1101.140708 0003 0036 166
E: 1101.140708 0003 002f 1
E: 1101.140708 0003 0035 488
E: 1101.140708 0003 0036 165
E: 1101.140708 0003 0000 297
E: 1101.140708 0003 0001 166
E: 1101.140708 0000 0000 0
E: 1101.154653 0003 002f 0
E: 1101.154653 0003 0035 301
E: 1101.154653 0003 0036 199
E: 1101.154653 0003 0000 301
E: 1101.154653 0003 0001 199
E: 1101.154653 0000 0000 0
E: 1101.168708 0003 0035 297
E: 1101.168708 0003 0036 165
E: 1101.168708 0003 002f 1
E: 1101.168708 0003 0036 163
E: 1101.168708 0003 0000 297
E: 1101.168708 0003 0001 165
E: 1101.168708 0000 0000 0
E: 1101.182687 0003 002f 0
E: 1101.182687 0003 0036 164
E: 1101.182687 0003 002f 1
E: 1101.182687 0003 0035 489
E: 1101.182687 0003 0001 164
E: 1101.182687 0000 0000 0
E: 1101.196802 0003 002f 0
E: 1101.196802 0003 0036 163
E: 1101.196802 0003 002f 1
E: 1101.196802 0003 0036 161
E: 1101.196802 0003 0001 163
E: 1101.196802 0000 0000 0
E: 1101.224782 0003 002f 0
E: 1101.224782 0003 0035 298
E: 1101.224782 0003 0036 162
E: 1101.224782 0003 002f 1
E: 1101.224782 0003 0036 160
E: 1101.224782 0003 0000 298
E: 1101.224782 0003 0001 162
E: 1101.224782 0000 0000 0
E: 1101.238684 0003 002f 0
E: 1101.238684 0003 0036 161
E: 1101.238684 0003 0001 161
E: 1101.238684 0000 0000 0
E: 1101.252852 0003 0035 297
E: 1101.252852 0003 0036 160
E: 1101.252852 0003 002f 1
E: 1101.252852 0003 0035 488
E: 1101.252852 0003 0036 158
E: 1101.252852 0003 0000 297
E: 1101.252852 0003 0001 160
E: 1101.252852 0000 0000 0
E: 1101.266989 0003 002f 0
E: 1101.266989 0003 0035 298
E: 1101.266989 0003 002f 1
E: 1101.266989 0003 0035 489
E: 1101.266989 0003 0000 298
E: 1101.266989 0000 0000 0
E: 1101.280916 0003 002f 0
E: 1101.280916 0003 0036 159
E: 1101.280916 0003 002f 1
E: 1101.280916 0003 0036 157
E: 1101.280916 0003 0001 159
E: 1101.280916 0000 0000 0
E: 1101.294895 0003 002f 0
E: 1101.294895 0003 0036 158
E: 1101.294895 0003 002f 1
E: 1101.294895 0003 0036 156
E: 1101.294895 0003 0001 158
E: 1101.294895 0000 0000 0
E: 1101.322808 0003 002f 0
E: 1101.322808 0003 0036 157
E: 1101.322808 0003 002f 1
E: 1101.322808 0003 0036 155
E: 1101.322808 0003 0001 157
E: 1101.322808 0000 0000 0
E: 1101.336676 0003 002f 0
E: 1101.336676 0003 0036 156
E: 1101.336676 0003 002f 1
E: 1101.336676 0003 0035 490
E: 1101.336676 0003 0036 154
E: 1101.336676 0003 0001 156
E: 1101.336676 0000 0000 0
E: 1101.350625 0003 002f 0
E: 1101.350625 0003 0036 155
E: 1101.350625 0003 002f 1
E: 1101.350625 0003 0036 153
E: 1101.350625 0003 0001 155
E: 1101.350625 0000 0000 0
E: 1101.364908 0003 002f 0
E: 1101.364908 0003 0036 154
E: 1101.364908 0003 002f 1
E: 1101.364908 0003 0036 152
E: 1101.364908 0003 0001 154
E: 1101.364908 0000 0000 0
E: 1101.378264 0003 002f 0
E: 1101.378264 0003 0035 299
E: 1101.378264 0003 002f 1
E: 1101.378264 0003 0036 151
E: 1101.378264 0003 0000 299
E: 1101.378264 0000 0000 0
E: 1101.392198 0003 002f 0
E: 1101.392198 0003 0036 153
E: 1101.392198 0003 0001 153
E: 1101.392198 0000 0000 0
E: 1101.420120 0003 0036 152
E: 1101.420120 0003 002f 1
E: 1101.420120 0003 0035 491
E: 1101.420120 0003 0036 149
E: 1101.420120 0003 0001 152
E: 1101.420120 0000 0000 0
E: 1101.433793 0003 002f 0
E: 1101.433793 0003 0036 151
E: 1101.433793 0003 0001 151
E: 1101.433793 0000 0000 0
E: 1101.447688 0003 0036 150
E: 1101.447688 0003 002f 1
E: 1101.447688 0003 0035 490
E: 1101.447688 0003 0036 148
E: 1101.447688 0003 0001 150
E: 1101.447688 0000 0000 0
E: 1101.462024 0003 002f 0
E: 1101.462024 0003 0036 149
E: 1101.462024 0003 002f 1
E: 1101.462024 0003 0035 491
E: 1101.462024 0003 0036 147
E: 1101.462024 0003 0001 149
E: 1101.462024 0000 0000 0
E: 1101.475741 0003 0036 146
E: 1101.475741 0000 0000 0
E: 1101.503322 0003 002f 0
E: 1101.503322 0003 0036 148
E: 1101.503322 0003 002f 1
E: 1101.503322 0003 0035 490
E: 1101.503322 0003 0036 145
E: 1101.503322 0003 0001 148
E: 1101.503322 0000 0000 0
E: 1101.517277 0003 002f 0
E: 1101.517277 0003 0035 298
E: 1101.517277 0003 0000 298
E: 1101.517277 0000 0000 0
E: 1101.531713 0003 0035 293
E: 1101.531713 0003 0036 118
E: 1101.531713 0003 003a 58
E: 1101.531713 0003 002f 1
E: 1101.531713 0003 0035 491
E: 1101.531713 0003 0036 144
E: 1101.531713 0003 0000 293
E: 1101.531713 0003 0001 118
E: 1101.531713 0003 0018 58
E: 1101.531713 0000 0000 0
E: 1101.545709 0003 002f 0
E: 1101.545709 0003 0035 299
E: 1101.545709 0003 0036 147
E: 1101.545709 0003 003a 63
E: 1101.545709 0003 0000 299
E: 1101.545709 0003 0001 147
E: 1101.545709 0003 0018 63
E: 1101.545709 0000 0000 0
E: 1101.560150 0003 002f 1
E: 1101.560150 0003 0036 143
E: 1101.560150 0000 0000 0
E: 1101.587984 0003 002f 0
E: 1101.587984 0003 0036 146
E: 1101.587984 0003 002f 1
E: 1101.587984 0003 0035 485
E: 1101.587984 0003 0036 116
E: 1101.587984 0003 003a 59
E: 1101.587984 0003 0001 146
E: 1101.587984 0000 0000 0
E: 1101.602364 0003 002f 0
E: 1101.602364 0003 0036 145
E: 1101.602364 0003 002f 1
E: 1101.602364 0003 0036 115
E: 1101.602364 0003 003a 60
E: 1101.602364 0003 0001 145
E: 1101.602364 0000 0000 0
E: 1101.616646 0003 002f 0
E: 1101.616646 0003 0035 298
E: 1101.616646 0003 002f 1
E: 1101.616646 0003 0035 486
E: 1101.616646 0003 0000 298
E: 1101.616646 0000 0000 0
E: 1101.630986 0003 002f 0
E: 1101.630986 0003 0035 299
E: 1101.630986 0003 0036 144
E: 1101.630986 0003 002f 1
E: 1101.630986 0003 0035 485
E: 1101.630986 0003 0036 113
E: 1101.630986 0003 003a 61
E: 1101.630986 0003 0000 299
E: 1101.630986 0003 0001 144
E: 1101.630986 0000 0000 0
E: 1101.645650 0003 002f 0
E: 1101.645650 0003 0035 293
E: 1101.645650 0003 0036 112
E: 1101.645650 0003 003a 61
E: 1101.645650 0003 002f 1
E: 1101.645650 0003 0035 486
E: 1101.645650 0003 0036 112
E: 1101.645650 0003 0000 293
E: 1101.645650 0003 0001 112
E: 1101.645650 0003 0018 61
E: 1101.645650 0000 0000 0
E: 1101.659972 0003 002f 0
E: 1101.659972 0003 0035 299
E: 1101.659972 0003 0036 142
E: 1101.659972 0003 003a 63
E: 1101.659972 0003 002f 1
E: 1101.659972 0003 003a 62
E: 1101.659972 0003 0000 299
E: 1101.659972 0003 0001 142
E: 1101.659972 0003 0018 63
E: 1101.659972 0000 0000 0
E: 1101.674330 0003 002f 0
E: 1101.674330 0003 0036 140
E: 1101.674330 0003 002f 1
E: 1101.674330 0003 0036 110
E: 1101.674330 0003 003a 63
E: 1101.674330 0003 0001 140
E: 1101.674330 0000 0000 0
E: 1101.688684 0003 002f 0
E: 1101.688684 0003 0035 298
E: 1101.688684 0003 002f 1
E: 1101.688684 0003 0035 485
E: 1101.688684 0003 0036 109
E: 1101.688684 0003 0000 298
E: 1101.688684 0000 0000 0
E: 1101.703013 0003 0035 486
E: 1101.703013 0000 0000 0
E: 1101.717306 0003 002f 0
E: 1101.717306 0003 0036 139
E: 1101.717306 0003 0001 139
E: 1101.717306 0000 0000 0
E: 1101.731745 0003 0036 140
E: 1101.731745 0003 0001 140
E: 1101.731745 0000 0000 0
E: 1101.746075 0003 0036 139
E: 1101.746075 0003 002f 1
E: 1101.746075 0003 0035 485
E: 1101.746075 0003 0036 107
E: 1101.746075 0003 0001 139
E: 1101.746075 0000 0000 0
E: 1101.760749 0003 002f 0
E: 1101.760749 0003 0035 293
E: 1101.760749 0003 0036 106
E: 1101.760749 0003 002f 1
E: 1101.760749 0003 0035 486
E: 1101.760749 0003 0036 106
E: 1101.760749 0003 0000 293
E: 1101.760749 0003 0001 106
E: 1101.760749 0000 0000 0
E: 1101.775396 0003 002f 0
E: 1101.775396 0003 0036 105
E: 1101.775396 0003 0001 105
E: 1101.775396 0000 0000 0
E: 1101.804525 0003 0036 102
E: 1101.804525 0003 002f 1
E: 1101.804525 0003 0035 485
E: 1101.804525 0003 0036 103
E: 1101.804525 0003 0001 102
E: 1101.804525 0000 0000 0
E: 1101.819139 0003 002f 0
E: 1101.819139 0003 0036 103
E: 1101.819139 0003 002f 1
E: 1101.819139 0003 0035 486
E: 1101.819139 0003 0036 102
E: 1101.819139 0003 0001 103
E: 1101.819139 0000 0000 0
E: 1101.833600 0003 002f 0
E: 1101.833600 0003 0035 294
E: 1101.833600 0003 002f 1
E: 1101.833600 0003 0036 103
E: 1101.833600 0003 0000 294
E: 1101.833600 0000 0000 0
E: 1101.848123 0003 002f 0
E: 1101.848123 0003 0035 293
E: 1101.848123 0003 0036 102
E: 1101.848123 0003 002f 1
E: 1101.848123 0003 0036 102
E: 1101.848123 0003 0000 293
E: 1101.848123 0003 0001 102
E: 1101.848123 0000 0000 0
E: 1101.877199 0003 002f 0
E: 1101.877199 0003 0036 99
E: 1101.877199 0003 002f 1
E: 1101.877199 0003 0036 99
E: 1101.877199 0003 0001 99
E: 1101.877199 0000 0000 0
E: 1101.892123 0003 002f 0
E: 1101.892123 0003 0036 97
E: 1101.892123 0003 002f 1
E: 1101.892123 0003 0036 98
E: 1101.892123 0003 0001 97
E: 1101.892123 0000 0000 0
E: 1101.906358 0003 002f 0
E: 1101.906358 0003 0035 292
E: 1101.906358 0003 0036 95
E: 1101.906358 0003 002f 1
E: 1101.906358 0003 0036 96
E: 1101.906358 0003 0000 292
E: 1101.906358 0003 0001 95
E: 1101.906358 0000 0000 0
E: 1101.934992 0003 002f 0
E: 1101.934992 0003 0036 94
E: 1101.934992 0003 002f 1
E: 1101.934992 0003 0036 95
E: 1101.934992 0003 0001 94
E: 1101.934992 0000 0000 0
E: 1101.949360 0003 002f 0
E: 1101.949360 0003 0035 293
E: 1101.949360 0003 0036 91
E: 1101.949360 0003 002f 1
E: 1101.949360 0003 0035 485
E: 1101.949360 0003 0036 93
E: 1101.949360 0003 0000 293
E: 1101.949360 0003 0001 91
E: 1101.949360 0000 0000 0
E: 1101.963859 0003 002f 0
E: 1101.963859 0003 0036 90
E: 1101.963859 0003 002f 1
E: 1101.963859 0003 0036 91
E: 1101.963859 0003 0001 90
E: 1101.963859 0000 0000 0
E: 1101.978271 0003 002f 0
E: 1101.978271 0003 0036 88
E: 1101.978271 0003 002f 1
E: 1101.978271 0003 0035 484
E: 1101.978271 0003 0001 88
E: 1101.978271 0000 0000 0
E: 1101.992752 0003 002f 0
E: 1101.992752 0003 0036 87
E: 1101.992752 0003 002f 1
E: 1101.992752 0003 0036 89
E: 1101.992752 0003 0001 87
E: 1101.992752 0000 0000 0
E: 1102.007389 0003 002f 0
E: 1102.007389 0003 0036 86
E: 1102.007389 0003 0001 86
E: 1102.007389 0000 0000 0
E: 1102.021493 0003 0035 292
E: 1102.021493 0003 002f 1
E: 1102.021493 0003 0035 483
E: 1102.021493 0003 0036 88
E: 1102.021493 0003 0000 292
E: 1102.021493 0000 0000 0
E: 1102.035912 0003 002f 0
E: 1102.035912 0003 0036 84
E: 1102.035912 0003 002f 1
E: 1102.035912 0003 0036 86
E: 1102.035912 0003 0001 84
E: 1102.035912 0000 0000 0
E: 1102.050301 0003 002f 0
E: 1102.050301 0003 0036 83
E: 1102.050301 0003 002f 1
E: 1102.050301 0003 0035 482
E: 1102.050301 0003 0036 85
E: 1102.050301 0003 0001 83
E: 1102.050301 0000 0000 0
E: 1102.064616 0003 002f 0
E: 1102.064616 0003 0035 291
E: 1102.064616 0003 002f 1
E: 1102.064616 0003 0036 84
E: 1102.064616 0003 0000 291
E: 1102.064616 0000 0000 0
E: 1102.093235 0003 002f 0
E: 1102.093235 0003 0036 82
E: 1102.093235 0003 002f 1
E: 1102.093235 0003 0035 481
E: 1102.093235 0003 0036 82
E: 1102.093235 0003 0001 82
E: 1102.093235 0000 0000 0
E: 1102.107666 0003 002f 0
E: 1102.107666 0003 0035 290
E: 1102.107666 0003 0036 80
E: 1102.107666 0003 0000 290
E: 1102.107666 0003 0001 80
E: 1102.107666 0000 0000 0
E: 1102.121779 0003 0035 291
E: 1102.121779 0003 0036 79
E: 1102.121779 0003 002f 1
E: 1102.121779 0003 0036 80
E: 1102.121779 0003 0000 291
E: 1102.121779 0003 0001 79
E: 1102.121779 0000 0000 0
E: 1102.136525 0003 002f 0
E: 1102.136525 0003 0035 290
E: 1102.136525 0003 0036 80
E: 1102.136525 0003 0000 290
E: 1102.136525 0003 0001 80
E: 1102.136525 0000 0000 0
E: 1102.150591 0003 0036 79
E: 1102.150591 0003 002f 1
E: 1102.150591 0003 0036 78
E: 1102.150591 0003 0001 79
E: 1102.150591 0000 0000 0
E: 1102.164794 0003 002f 0
E: 1102.164794 0003 0036 78
E: 1102.164794 0003 002f 1
E: 1102.164794 0003 0035 480
E: 1102.164794 0003 0036 77
E: 1102.164794 0003 0001 78
E: 1102.164794 0000 0000 0
E: 1102.179165 0003 002f 0
E: 1102.179165 0003 0035 289
E: 1102.179165 0003 0036 76
E: 1102.179165 0003 002f 1
E: 1102.179165 0003 0035 473
E: 1102.179165 0003 0036 58
E: 1102.179165 0003 003a 55
E: 1102.179165 0003 0000 289
E: 1102.179165 0003 0001 76
E: 1102.179165 0000 0000 0
E: 1102.193634 0003 002f 0
E: 1102.193634 0003 0035 288
E: 1102.193634 0003 0036 75
E: 1102.193634 0003 002f 1
E: 1102.193634 0003 0035 479
E: 1102.193634 0003 0036 75
E: 1102.193634 0003 003a 63
E: 1102.193634 0003 0000 288
E: 1102.193634 0003 0001 75
E: 1102.193634 0000 0000 0
E: 1102.207846 0003 0035 472
E: 1102.207846 0003 0036 57
E: 1102.207846 0003 003a 55
E: 1102.207846 0000 0000 0
E: 1102.222318 0003 002f 0
E: 1102.222318 0003 0036 74
E: 1102.222318 0003 002f 1
E: 1102.222318 0003 0036 55
E: 1102.222318 0003 003a 54
E: 1102.222318 0003 0001 74
E: 1102.222318 0000 0000 0
E: 1102.236809 0003 002f 0
E: 1102.236809 0003 0035 287
E: 1102.236809 0003 0036 75
E: 1102.236809 0003 002f 1
E: 1102.236809 0003 0035 471
E: 1102.236809 0003 0036 56
E: 1102.236809 0003 003a 55
E: 1102.236809 0003 0000 287
E: 1102.236809 0003 0001 75
E: 1102.236809 0000 0000 0
E: 1102.251460 0003 002f 0
E: 1102.251460 0003 0036 73
E: 1102.251460 0003 002f 1
E: 1102.251460 0003 0036 55
E: 1102.251460 0003 003a 54
E: 1102.251460 0003 0001 73
E: 1102.251460 0000 0000 0
E: 1102.265815 0003 002f 0
E: 1102.265815 0003 0035 286
E: 1102.265815 0003 0036 72
E: 1102.265815 0003 002f 1
E: 1102.265815 0003 0035 470
E: 1102.265815 0003 0036 54
E: 1102.265815 0003 0000 286
E: 1102.265815 0003 0001 72
E: 1102.265815 0000 0000 0
E: 1102.280396 0003 002f 0
E: 1102.280396 0003 0036 73
E: 1102.280396 0003 002f 1
E: 1102.280396 0003 0035 471
E: 1102.280396 0003 0036 55
E: 1102.280396 0003 003a 55
E: 1102.280396 0003 0001 73
E: 1102.280396 0000 0000 0
E: 1102.294942 0003 002f 0
E: 1102.294942 0003 0035 285
E: 1102.294942 0003 0036 71
E: 1102.294942 0003 002f 1
E: 1102.294942 0003 0035 470
E: 1102.294942 0003 0036 54
E: 1102.294942 0003 0000 285
E: 1102.294942 0003 0001 71
E: 1102.294942 0000 0000 0
E: 1102.309403 0003 002f 0
E: 1102.309403 0003 0036 72
E: 1102.309403 0003 002f 1
E: 1102.309403 0003 0036 55
E: 1102.309403 0003 0001 72
E: 1102.309403 0000 0000 0
E: 1102.323967 0003 002f 0
E: 1102.323967 0003 0035 284
E: 1102.323967 0003 0036 71
E: 1102.323967 0003 002f 1
E: 1102.323967 0003 0036 54
E: 1102.323967 0003 0000 284
E: 1102.323967 0003 0001 71
E: 1102.323967 0000 0000 0
E: 1102.338440 0003 002f 0
E: 1102.338440 0003 0035 285
E: 1102.338440 0003 0036 72
E: 1102.338440 0003 002f 1
E: 1102.338440 0003 0036 53
E: 1102.338440 0003 003a 54
E: 1102.338440 0003 0000 285
E: 1102.338440 0003 0001 72
E: 1102.338440 0000 0000 0
E: 1102.352879 0003 002f 0
E: 1102.352879 0003 0036 71
E: 1102.352879 0003 0001 71
E: 1102.352879 0000 0000 0
E: 1102.367372 0003 0035 284
E: 1102.367372 0003 0000 284
E: 1102.367372 0000 0000 0
E: 1102.381918 0003 0036 70
E: 1102.381918 0003 002f 1
E: 1102.381918 0003 0035 468
E: 1102.381918 0003 0036 50
E: 1102.381918 0003 003a 50
E: 1102.381918 0003 0001 70
E: 1102.381918 0000 0000 0
E: 1102.396754 0003 002f 0
E: 1102.396754 0003 0035 283
E: 1102.396754 0003 0036 68
E: 1102.396754 0003 003a 59
E: 1102.396754 0003 002f 1
E: 1102.396754 0003 0036 49
E: 1102.396754 0003 003a 44
E: 1102.396754 0003 0000 283
E: 1102.396754 0003 0001 68
E: 1102.396754 0003 0018 59
E: 1102.396754 0000 0000 0
E: 1102.411214 0003 002f 0
E: 1102.411214 0003 0035 276
E: 1102.411214 0003 0036 54
E: 1102.411214 0003 003a 48
E: 1102.411214 0003 002f 1
E: 1102.411214 0003 0035 466
E: 1102.411214 0003 0036 43
E: 1102.411214 0003 003a 31
E: 1102.411214 0003 0000 276
E: 1102.411214 0003 0001 54
E: 1102.411214 0003 0018 48
E: 1102.411214 0000 0000 0
E: 1102.426234 0003 002f 0
E: 1102.426234 0003 0035 275
E: 1102.426234 0003 0036 53
E: 1102.426234 0003 003a 30
E: 1102.426234 0003 002f 1
E: 1102.426234 0003 0035 467
E: 1102.426234 0003 0036 49
E: 1102.426234 0003 003a 13
E: 1102.426234 0003 0000 275
E: 1102.426234 0003 0001 53
E: 1102.426234 0003 0018 30
E: 1102.426234 0000 0000 0
E: 1102.437274 0003 002f 0
E: 1102.437274 0003 0035 280
E: 1102.437274 0003 0036 60
E: 1102.437274 0003 003a 10
E: 1102.437274 0003 002f 1
E: 1102.437274 0003 0039 -1
E: 1102.437274 0001 0145 1
E: 1102.437274 0001 014d 0
E: 1102.437274 0003 0000 280
E: 1102.437274 0003 0001 60
E: 1102.437274 0003 0018 10
E: 1102.437274 0000 0000 0
E: 1102.447118 0003 002f 0
E: 1102.447118 0003 0039 -1
E: 1102.447118 0001 014a 0
E: 1102.447118 0001 0145 0
E: 1102.447118 0003 0018 0
E: 1102.447118 0000 0000 0
E: 1102.447618 0003 002f 0
E: 1102.447618 0003 0039 -1
E: 1102.447618 0003 002f 1
E: 1102.447618 0003 0039 -1
E: 1102.447618 0003 002f 2
E: 1102.447618 0003 0039 -1
E: 1102.447618 0003 002f 3
E: 1102.447618 0003 0039 -1
E: 1102.447618 0003 002f 4
E: 1102.447618 0003 0039 -1
E: 1102.447618 0003 002f 5
E: 1102.447618 0003 0039 -1
E: 1102.447618 0003 002f 6
E: 1102.447618 0003 0039 -1
E: 1102.447618 0003 002f 7
E: 1102.447618 0003 0039 -1
E: 1102.447618 0003 002f 8
E: 1102.447618 0003 0039 -1
E: 1102.447618 0003 002f 9
E: 1102.447618 0003 0039 -1
E: 1102.447618 0003 002f 10
E: 1102.447618 0003 0039 -1
E: 1102.447618 0003 002f 11
E: 1102.447618 0003 0039 -1
E: 1102.447618 0003 002f 12
E: 1102.447618 0003 0039 -1
E: 1102.447618 0003 002f 13
E: 1102.447618 0003 0039 -1
E: 1102.447618 0003 002f 14
E: 1102.447618 0003 0039 -1
